Place,Name,BirthYear,Country,BodyweightKg,Squat1Kg,Squat2Kg,Squat3Kg,Best3SquatKg,Bench1Kg,Bench2Kg,Bench3Kg,Best3BenchKg,Deadlift1Kg,Deadlift2Kg,Deadlift3Kg,Best3DeadliftKg,TotalKg,WeightClassKg,Division,Sex,Equipment,Event
1,Sergey Fedosienko,1982,Russia,58.15,205,217.5,226,226,155,165,170,170,240,260,-267.5,260,656,59,Open,M,Raw,SBD
2,Alexander Kolbin,1987,Russia,58.62,200,210,-215,210,135,142.5,-145,142.5,240,250,-255,250,602.5,59,Open,M,Raw,SBD
3,Dariusz Wszoła,1978,Poland,58.3,200,210,215,215,140,147.5,-152.5,147.5,190,200,205,205,567.5,59,Open,M,Raw,SBD
4,Etienne Lited,1979,France,58.48,195,-202.5,-202.5,195,135,-140,-140,135,225,235,-240,235,565,59,Open,M,Raw,SBD
5,Takaharu Ebihara,1980,Japan,58.47,-175,175,185,185,135,140,-142.5,140,200,220,-225,220,545,59,Open,M,Raw,SBD
6,Quentin Myers,1986,USA,58.29,172.5,182.5,-187.5,182.5,122.5,127.5,-132.5,127.5,192.5,202.5,-207.5,202.5,512.5,59,Open,M,Raw,SBD
DQ,Mohamed Lakehal,1982,Algeria,58.85,210,220,-222.5,220,-110,-117.5,-117.5,,225,-235,-237.5,225,,59,Open,M,Raw,SBD
1,Antti Savolainen,1978,Finland,65.56,202.5,210,215,215,152.5,-157.5,157.5,157.5,260,267.5,278,278,650.5,66,Open,M,Raw,SBD
2,Tsung-Ting Hsieh,1982,Taiwan,63.27,205,215,222.5,222.5,150,160,162.5,162.5,250,257.5,265,265,650,66,Open,M,Raw,SBD
3,Stephen Cascioli,1991,Canada,64.87,225,235,240.5,240.5,142.5,150,-155,150,237.5,245,-250,245,635.5,66,Open,M,Raw,SBD
4,Sergey Skochek,1983,Russia,65.86,200,210,-215,210,165,170,172.5,172.5,240,-247.5,-255,240,622.5,66,Open,M,Raw,SBD
5,Alexandr Kuramshin,1986,Kazakhstan,65.66,215,222.5,225,225,135,142.5,145,145,240,-252.5,-252.5,240,610,66,Open,M,Raw,SBD
6,Gabriel Quispe Loayza,1981,Peru,65.2,195,205,210,210,132.5,-137.5,-137.5,132.5,215,225,-232.5,225,567.5,66,Open,M,Raw,SBD
7,Alexandr Vaskov,1986,Kazakhstan,65.24,180,192.5,195,195,145,152.5,-160,152.5,200,-212.5,-212.5,200,547.5,66,Open,M,Raw,SBD
8,Reagan Dear,1990,New Zealand,65.87,167.5,170,175,175,115,122.5,-125,122.5,205,215,220,220,517.5,66,Open,M,Raw,SBD
9,Michael Botha,1989,South Africa,64.32,165,172.5,-175,172.5,130,137.5,140,140,187.5,202.5,-205,202.5,515,66,Open,M,Raw,SBD
10,Hidayat Osman Muhammad,1990,Singapore,65.43,175,182.5,-190,182.5,107.5,-110,110,110,210,-222.5,-225,210,502.5,66,Open,M,Raw,SBD
1,Aliaksandr Hrynkevich-Sudnik,1976,Belarus,73.57,235,242.5,247.5,247.5,160,165,167.5,167.5,280,290,297.5,297.5,712.5,74,Open,M,Raw,SBD
2,Hassan El Belghiti,1975,France,73.04,225,235,240,240,140,147.5,150,150,290,305,-311.5,305,695,74,Open,M,Raw,SBD
3,Adrien Poinson,1991,France,73.27,225,230,232.5,232.5,208,-210.5,210.5,210.5,250,-257.5,-257.5,250,693,74,Open,M,Raw,SBD
4,Yakov Ionin,1986,Kazakhstan,72.7,235,245,250,250,160,165,167.5,167.5,255,262.5,-277.5,262.5,680,74,Open,M,Raw,SBD
5,Lung-Hsin Huang,1981,Taiwan,73.62,210,-225,225,225,130,140,150,150,275,292.5,300,300,675,74,Open,M,Raw,SBD
6,Sami Nieminen,1975,Finland,73.76,230,-242.5,-242.5,230,147.5,152.5,-155,152.5,275,292.5,-311,292.5,675,74,Open,M,Raw,SBD
7,Derrick Kim Guoguang,1983,Singapore,73.22,225,237.5,242.5,242.5,135,-140,-140,135,275,295,-302.5,295,672.5,74,Open,M,Raw,SBD
8,Rabah Fekair,1990,Algeria,73.84,235,250,-255,250,135,145,150,150,250,270,-277.5,270,670,74,Open,M,Raw,SBD
9,Oleksandr Makhov,1990,Ukraine,73.56,220,230,237.5,237.5,130,137.5,140,140,260,280,-290,280,657.5,74,Open,M,Raw,SBD
10,Aman Kapyshev,1987,Kazakhstan,73.88,235,245,252.5,252.5,145,152.5,160,160,240,-245,-245,240,652.5,74,Open,M,Raw,SBD
11,Pasi Sipiläinen,1978,Finland,73.62,200,207.5,210,210,150,155,157.5,157.5,270,280,-287.5,280,647.5,74,Open,M,Raw,SBD
12,Yue Sun,1989,Australia,73.92,210,-217.5,-217.5,210,132.5,137.5,140,140,235,-242.5,250,250,600,74,Open,M,Raw,SBD
13,Ming-Hui Lin,1983,Taiwan,72.18,210,-242.5,-242.5,210,130,140,150,150,210,220,230,230,590,74,Open,M,Raw,SBD
14,Sean Janzer,1984,Canada,72.07,195,205,-210,205,122.5,130,-135,130,240,-250,-250,240,575,74,Open,M,Raw,SBD
15,Ryuji Nakamura,1981,Japan,73.77,182.5,-187.5,-187.5,182.5,152.5,160,-162.5,160,195,210,220,220,562.5,74,Open,M,Raw,SBD
16,Levon Kocharyan,1985,Armenia,73.63,-165,165,175,175,155,-160,-160,155,165,175,185,185,515,74,Open,M,Raw,SBD
DQ,Per Berglund,1967,Sweden,73.08,,,,,,,,,,,,,,74,Open,M,Raw,SBD
1,Brett Gibbs,1991,New Zealand,82.4,270,-282.5,-283,270,195,202.5,-205.5,202.5,290,302.5,-316.5,302.5,775,83,Open,M,Raw,SBD
2,Artyom Zaytsev,1985,Russia,82.6,250,260,-270,260,162.5,-167.5,167.5,167.5,290,300,-305,300,727.5,83,Open,M,Raw,SBD
3,Mikko Ronkainen,1987,Finland,82.72,240,250,-252.5,250,165,-170,-170,165,290,-295,-295,290,705,83,Open,M,Raw,SBD
4,Mark Wasson,1989,Canada,81.45,240,247.5,-250,247.5,165,-170,-170,165,290,-295,-295,290,702.5,83,Open,M,Raw,SBD
5,Amir Fazeli,1986,Australia,82.63,240,252.5,-260,252.5,140,147.5,-152.5,147.5,297.5,-312.5,-312.5,297.5,697.5,83,Open,M,Raw,SBD
6,Kristian Sewén,1982,Sweden,82.95,-225,225,-230,225,152.5,157.5,160,160,275,287.5,-295,287.5,672.5,83,Open,M,Raw,SBD
7,Tiit Saarma,1990,Estonia,81.35,220,230,-235,230,160,-170,-170,160,260,270,280,280,670,83,Open,M,Raw,SBD
8,Tobias Haegg,1987,Sweden,81.88,220,232.5,-237.5,232.5,145,-150,-150,145,275,285,-295,285,662.5,83,Open,M,Raw,SBD
9,Aimar Kuusnõmm,1990,Estonia,79.95,220,230,-235,230,165,-172.5,-172.5,165,260,-270,,260,655,83,Open,M,Raw,SBD
10,Masatoshi Yokota,1989,Japan,80.48,225,235,240,240,145,150,-155,150,245,260,-265,260,650,83,Open,M,Raw,SBD
11,Robert Rogers,1989,UK,82.62,225,-235,235,235,145,152.5,-157.5,152.5,262.5,-270,-270,262.5,650,83,Open,M,Raw,SBD
12,Mark Hodgett,1979,UK,82.09,202.5,212.5,220,220,137.5,142.5,147.5,147.5,265,275,280,280,647.5,83,Open,M,Raw,SBD
13,Tsuyoshi Hidaka,1986,Japan,81.41,215,230,232.5,232.5,135,145,150,150,235,255,-260,255,637.5,83,Open,M,Raw,SBD
14,Sergey Asaturov,1984,Armenia,81.26,190,-192.5,-205,190,175,180,-182.5,180,200,220,-230,220,590,83,Open,M,Raw,SBD
DQ,Alexey Kuzmin,1982,Russia,82.04,-267.5,-267.5,-267.5,,175,177.5,,177.5,285,302.5,-307.5,302.5,,83,Open,M,Raw,SBD
DD,José Castillo #1,1986,Ecuador,81.93,260,280,290,290,172.5,182.5,-187.5,182.5,300,315,-322.5,315,,83,Open,M,Raw,SBD
1,Krzysztof Wierzbicki,1990,Poland,92.52,265,280,290,290,180,187.5,-190,187.5,335,355,-373,355,832.5,93,Open,M,Raw,SBD
2,Layne Norton,1981,USA,91.48,275,287.5,303,303,162.5,170,172.5,172.5,295,310,322.5,322.5,798,93,Open,M,Raw,SBD
3,LS McClain,1978,USA,92.48,-250,250,265,265,197.5,207.5,212.5,212.5,277.5,292.5,307.5,307.5,785,93,Open,M,Raw,SBD
4,Quentin Gilbert,1983,France,92.85,275,282.5,287.5,287.5,185,192.5,195,195,290,302.5,-312.5,302.5,785,93,Open,M,Raw,SBD
5,Borislav Adov,1987,Bulgaria,92.48,260,270,275,275,200,207.5,-210,207.5,280,300,,300,782.5,93,Open,M,Raw,SBD
6,Jakub Sedláček,1988,Czechia,91.38,275,290,-300,290,-210,210,215,215,250,270,-285,270,775,93,Open,M,Raw,SBD
7,Francesco Virzi,1983,Germany,92.76,260,272.5,277.5,277.5,190,-195,-195,190,260,277.5,287.5,287.5,755,93,Open,M,Raw,SBD
8,Lauris Danilevic,1982,Latvia,92.07,255,262.5,270,270,162.5,170,172.5,172.5,285,295,300,300,742.5,93,Open,M,Raw,SBD
9,Mikko Muttonen,1987,Finland,91.33,250,257.5,-262.5,257.5,175,-177.5,-177.5,175,285,-300,-300,285,717.5,93,Open,M,Raw,SBD
10,Pierre Shillingford,1988,UK,91.39,230,240,250,250,150,160,-170,160,272.5,287.5,295,295,705,93,Open,M,Raw,SBD
11,Siim Sammalkivi,1987,Estonia,92.39,235,242.5,247.5,247.5,165,170,175,175,270,275,,275,697.5,93,Open,M,Raw,SBD
12,Peter Horvath,1991,Hungary,90.58,230,242.5,252.5,252.5,150,157.5,162.5,162.5,260,272.5,-285,272.5,687.5,93,Open,M,Raw,SBD
13,Rait Veski,1983,Estonia,90.33,225,-240,-240,225,160,165,167.5,167.5,275,285,-292.5,285,677.5,93,Open,M,Raw,SBD
14,Andrew Lutzuk,1986,Canada,91.11,215,-230,230,230,142.5,150,155,155,265,280,290,290,675,93,Open,M,Raw,SBD
15,Johnathan Watson,1990,UK,91.76,207.5,215,-220,215,140,145,147.5,147.5,260,-280,280,280,642.5,93,Open,M,Raw,SBD
16,Balazs Dr Budai,1979,Hungary,92.36,175,182.5,-185,182.5,130,137.5,-140,137.5,220,-230,230,230,550,93,Open,M,Raw,SBD
DQ,Mourad Kaanane,1988,Algeria,91.89,-270,-280,-290,,150,155,-160,155,290,-305,-305,290,,93,Open,M,Raw,SBD
DQ,Aron Lee Du Teitsson,1987,Iceland,92.39,245,-257.5,257.5,257.5,190,-200,-200,190,,,,,,93,Open,M,Raw,SBD
DD,David Coimbra,1983,Brazil,92.01,270,280,285,285,172.5,-180,180,180,307.5,322.5,-340,322.5,,93,Open,M,Raw,SBD
1,Sofiane Belkesir,1984,France,104.49,280,-290,290,290,192.5,202.5,207.5,207.5,315,330,-343,330,827.5,105,Open,M,Raw,SBD
2,Nick Tylutki,1978,USA,103.79,295,305,-315,305,175,182.5,187.5,187.5,320,330,-337.5,330,822.5,105,Open,M,Raw,SBD
3,Stephen Manuel,1988,UK,103,275,290,295,295,190,197.5,200,200,307.5,-317.5,-317.5,307.5,802.5,105,Open,M,Raw,SBD
4,Ernst Gross,1987,Russia,103.85,300,310,-315,310,185,190,197.5,197.5,295,-305,-305,295,802.5,105,Open,M,Raw,SBD
5,Rait Sagor,1990,Estonia,104.7,-270,270,285,285,180,187.5,-192.5,187.5,330,-345,-345,330,802.5,105,Open,M,Raw,SBD
6,Yusuke Takeda,1985,Japan,103.69,262.5,282.5,295,295,197.5,207.5,212.5,212.5,255,275,292.5,292.5,800,105,Open,M,Raw,SBD
7,Mateusz Grzesik,1989,Poland,104.05,260,275,280,280,190,200,202.5,202.5,300,-322.5,-322.5,300,782.5,105,Open,M,Raw,SBD
8,Mostafa Yazdani Kachouei,1988,Iran,101.25,255,265,275,275,160,-167.5,167.5,167.5,310,325,330,330,772.5,105,Open,M,Raw,SBD
9,Laurent Fontaine,1988,Canada,104.07,270,285,-300,285,175,180,185,185,270,282.5,290,290,760,105,Open,M,Raw,SBD
10,Teemu Mutikainen,1988,Finland,104.09,265,275,-280,275,165,172.5,-175,172.5,290,312.5,-315,312.5,760,105,Open,M,Raw,SBD
11,Luis Zouein,1991,Brazil,102.71,240,255,-260,255,175,182.5,-187.5,182.5,280,295,302.5,302.5,740,105,Open,M,Raw,SBD
12,Henry Tosh,1980,UK,100.15,225,235,242.5,242.5,175,182.5,-187.5,182.5,285,300,307.5,307.5,732.5,105,Open,M,Raw,SBD
13,Alexey Pankrashev,1990,Kazakhstan,104.37,275,-280,,275,165,-172.5,172.5,172.5,270,277.5,,277.5,725,105,Open,M,Raw,SBD
1,Mohamed Bouafia,1976,Algeria,119.48,350,-370,-370,350,200,210,212.5,212.5,332.5,345,365,365,927.5,120,Open,M,Raw,SBD
2,Ivaylo Hristov,1979,Bulgaria,119.93,325,342.5,-352.5,342.5,210,217.5,222.5,222.5,330,345,362.5,362.5,927.5,120,Open,M,Raw,SBD
3,Tony Cliffe,1984,UK,118.51,300,320,327.5,327.5,210,222.5,230,230,320,335,342.5,342.5,900,120,Open,M,Raw,SBD
4,Michael Tuchscherer,1985,USA,119.72,305,325,-335,325,190,200,-207.5,200,307.5,327.5,335,335,860,120,Open,M,Raw,SBD
5,Jared Martin #1,1989,USA,118.75,312.5,327.5,-340,327.5,177.5,187.5,190,190,317.5,330,335,335,852.5,120,Open,M,Raw,SBD
6,Cameron McKenzie,1993,Australia,119.78,287.5,307.5,-315,307.5,185,-195,195,195,300,330,335,335,837.5,120,Open,M,Raw,SBD
7,Viktor Marynenko,1987,Ukraine,118.96,307.5,317.5,-322.5,317.5,192.5,-202.5,-202.5,192.5,315,-335,-337.5,315,825,120,Open,M,Raw,SBD
8,Māris Juzups,1988,Latvia,118.26,280,292.5,302.5,302.5,220,227.5,-235.5,227.5,275,285,-292.5,285,815,120,Open,M,Raw,SBD
9,Adam Haavik,1988,Sweden,116.94,275,290,-295,290,185,192.5,200,200,300,315,320,320,810,120,Open,M,Raw,SBD
10,Oleksandr Dubovoy,1980,Ukraine,107.29,300,312.5,315,315,200,-215,-215,200,255,270,280,280,795,120,Open,M,Raw,SBD
11,Pavol Demčák,1977,Czechia,117.87,265,275,285,285,217.5,222.5,-230,222.5,265,275,280,280,787.5,120,Open,M,Raw,SBD
12,Brody Laybolt,1988,Canada,118.66,257.5,270,-275,270,185,195,-200,195,302.5,-322.5,322.5,322.5,787.5,120,Open,M,Raw,SBD
13,Michael Schrems,1984,Austria,118.28,255,270,275,275,200,207.5,-210,207.5,270,-295,,270,752.5,120,Open,M,Raw,SBD
14,Rob Murrell,1981,Australia,118.94,270,-280,-280,270,160,165,-170,165,250,265,275,275,710,120,Open,M,Raw,SBD
DD,Majid Delir,1984,Iran,119.26,280,-300,,280,-210,-220,-220,,-270,,,,,120,Open,M,Raw,SBD
1,Ray Williams #1,1986,USA,171.65,390,415.5,425.5,425.5,225,235,-242.5,235,305,325,340,340,1000.5,120+,Open,M,Raw,SBD
2,Blaine Sumner,1987,USA,167.02,365,387.5,410,410,220,232.5,-237.5,232.5,315,335,-360,335,977.5,120+,Open,M,Raw,SBD
3,Kelly Branton,1986,Canada,149.81,-365,375,387.5,387.5,240,250,-255,250,320,332.5,-340,332.5,970,120+,Open,M,Raw,SBD
4,Jezza Uepa,1980,Nauru,168.15,390,410,-416,410,230,242.5,-245,242.5,310,317.5,-320,317.5,970,120+,Open,M,Raw,SBD
5,Martins Kruze,1988,Latvia,156.15,367.5,380,390,390,215,222.5,-227.5,222.5,320,332.5,337.5,337.5,950,120+,Open,M,Raw,SBD
6,Artem Kovalchuk #1,1982,Russia,142.29,340,357.5,365,365,195,202.5,205,205,330,350,362.5,362.5,932.5,120+,Open,M,Raw,SBD
7,Mojtaba Maleki,1983,Iran,156.85,365,380,392.5,392.5,210,215,-220,215,320,-335,-335,320,927.5,120+,Open,M,Raw,SBD
8,Martin Borgland Rønning,1984,Norway,163.5,310,320,330,330,-245,245,252.5,252.5,300,320,325,325,907.5,120+,Open,M,Raw,SBD
9,Siim Rast,1988,Estonia,182.5,315,327.5,-332.5,327.5,215,225,-232.5,225,330,340,342.5,342.5,895,120+,Open,M,Raw,SBD
10,Michael Jones #1,1988,UK,174.25,300,320,335,335,205,217.5,225,225,300,317.5,332.5,332.5,892.5,120+,Open,M,Raw,SBD
11,Ilyes Boughalem,1987,Algeria,143.72,270,290,310,310,250,262.5,270.5,270.5,260,280,295,295,875.5,120+,Open,M,Raw,SBD
12,Tony Reinmuth,1989,Australia,153.33,320,332.5,-340,332.5,192.5,200,205,205,290,312.5,-327.5,312.5,850,120+,Open,M,Raw,SBD
13,Steve Ringoot,1989,Belgium,141.3,285,302.5,305,305,195,205,215,215,300,312.5,-320,312.5,832.5,120+,Open,M,Raw,SBD
14,Antti Tommila,1989,Finland,145.45,295,305,312.5,312.5,215,-222.5,-225,215,300,-327.5,-327.5,300,827.5,120+,Open,M,Raw,SBD
15,Kim Gustafsson,1986,Sweden,146.2,265,277.5,285,285,155,165,170,170,340,360,-375.5,360,815,120+,Open,M,Raw,SBD
16,Christophe Rebreyend,1988,Netherlands,145.06,285,300,302.5,302.5,167.5,-177.5,180,180,310,320,325,325,807.5,120+,Open,M,Raw,SBD
17,Philipp Gramlich,1987,Germany,131.85,285,-300,-300,285,180,190,200,200,300,317.5,-322.5,317.5,802.5,120+,Open,M,Raw,SBD
18,Daniel Nacle,1978,Brazil,136.33,275,287.5,295,295,205,212.5,-215,212.5,275,290,-302.5,290,797.5,120+,Open,M,Raw,SBD
19,Dave Napper,1987,Australia,125.69,280,300,-305,300,155,165,-167.5,165,300,320,-335,320,785,120+,Open,M,Raw,SBD
20,Kyle Noonan,1990,South Africa,126,230,250,260,260,170,175,180,180,300,325,-342.5,325,765,120+,Open,M,Raw,SBD
21,Vagi Henry,1988,Papua New Guinea,136,250,260,275,275,150,157.5,165,165,285,300,-310,300,740,120+,Open,M,Raw,SBD
22,Conrad Davies,1991,Canada,130.12,235,245,260,260,160,170,-180,170,260,270,275,275,705,120+,Open,M,Raw,SBD
23,Fredrik Smulter,1983,Finland,153.3,235,,,235,-270,-270,270,270,175,,,175,680,120+,Open,M,Raw,SBD
1,Boris Komissarov,1998,Russia,52.48,150,160,165,165,100,105,110,110,160,170,175,175,450,53,Sub-Juniors,M,Raw,SBD
2,Egidijus Valčiukas,1998,Lithuania,52.18,172.5,182.5,190,190,110,-115,115,115,130,137.5,142.5,142.5,447.5,53,Sub-Juniors,M,Raw,SBD
1,Sergey Chizhikov,1997,Russia,58.93,170,180,192.5,192.5,95,100,105,105,170,180,-187.5,180,477.5,59,Sub-Juniors,M,Raw,SBD
2,Deniss Koltisevs,1997,Latvia,58.42,135,142.5,147.5,147.5,95,100,-102.5,100,165,172.5,175,175,422.5,59,Sub-Juniors,M,Raw,SBD
3,Edgars Jurkans,1998,Latvia,58.98,130,137.5,-142.5,137.5,95,100,105,105,-170,170,180,180,422.5,59,Sub-Juniors,M,Raw,SBD
4,Rin Tsuzaki,1998,Japan,58.18,140,150,-155,150,67.5,70,-75,70,170,-180,190,190,410,59,Sub-Juniors,M,Raw,SBD
5,Darcy Ducharme,1997,Canada,57.22,140,-147.5,152.5,152.5,75,80,-85,80,-140,140,152.5,152.5,385,59,Sub-Juniors,M,Raw,SBD
6,Kanstantsin Shabunevich,2001,Belarus,56.54,120,130,-135,130,75,-80,,75,140,-150,150,150,355,59,Sub-Juniors,M,Raw,SBD
7,Atte Korhonen,1999,Finland,58.97,100,-112.5,117.5,117.5,67.5,-72.5,75,75,135,145,-155,145,337.5,59,Sub-Juniors,M,Raw,SBD
8,Timo Mikkonen,1998,Finland,57.8,90,102.5,-105,102.5,65,70,-72.5,70,122.5,-135,-135,122.5,295,59,Sub-Juniors,M,Raw,SBD
1,Tomi Kuusisto,1997,Finland,65.44,180,187.5,195,195,95,100,102.5,102.5,207.5,217.5,221.5,221.5,519,66,Sub-Juniors,M,Raw,SBD
2,Anuar Amirtaev,1998,Kazakhstan,65.35,180,190,195,195,105,110,-112.5,110,197.5,207.5,-215,207.5,512.5,66,Sub-Juniors,M,Raw,SBD
3,Andreas Nilsson #1,1998,Sweden,65.48,160,-172.5,172.5,172.5,105,115,120,120,170,195,207.5,207.5,500,66,Sub-Juniors,M,Raw,SBD
4,Petr Korolev,1997,Russia,65.5,170,180,185,185,95,100,105,105,190,200,-205,200,490,66,Sub-Juniors,M,Raw,SBD
5,Teemu Sippola,1997,Finland,65.38,165,-175,175,175,105,107.5,-110,107.5,180,195,-205,195,477.5,66,Sub-Juniors,M,Raw,SBD
6,Kacper Drochomirecki,1998,Poland,65.46,140,147.5,155,155,85,90,-92.5,90,160,172.5,182.5,182.5,427.5,66,Sub-Juniors,M,Raw,SBD
7,Bartłomiej Kiersikowski,1998,Poland,65.57,130,137.5,142.5,142.5,90,-95,95,95,180,190,-202.5,190,427.5,66,Sub-Juniors,M,Raw,SBD
1,Vladislav Sheruntaev,1997,Russia,73.62,190,202.5,210,210,130,137.5,142.5,142.5,215,227.5,237.5,237.5,590,74,Sub-Juniors,M,Raw,SBD
2,Viktor Beilmann,1997,Germany,73.78,190,200,205,205,125,132.5,135,135,240,-250,-252.5,240,580,74,Sub-Juniors,M,Raw,SBD
3,James Kondilos,1997,Australia,73.38,175,185,192.5,192.5,107.5,-115,-115,107.5,-225,225,232.5,232.5,532.5,74,Sub-Juniors,M,Raw,SBD
4,Noah Ukrainetz,1999,Canada,70.61,197.5,-209.5,-209.5,197.5,107.5,112.5,-115,112.5,200,-207.5,210,210,520,74,Sub-Juniors,M,Raw,SBD
5,Mikko Aulapalo,1997,Finland,73.39,175,195,-200,195,90,100,105,105,202.5,215,-227.5,215,515,74,Sub-Juniors,M,Raw,SBD
6,Harold Chow,1998,Australia,73.92,175,182.5,-187.5,182.5,110,115,-122.5,115,200,215,-230,215,512.5,74,Sub-Juniors,M,Raw,SBD
7,Patryk Zaniewski,1998,Poland,73.17,-172.5,172.5,177.5,177.5,110,115,-120,115,202.5,-210,215,215,507.5,74,Sub-Juniors,M,Raw,SBD
8,Juho Naapuri,1997,Finland,73.58,160,165,-170,165,105,110,117.5,117.5,190,205,217.5,217.5,500,74,Sub-Juniors,M,Raw,SBD
9,Marcus Naillon,1997,USA,72.25,130,137.5,145,145,92.5,-95,95,95,175,182.5,190,190,430,74,Sub-Juniors,M,Raw,SBD
10,Taiga Murakami,1997,Japan,71.18,140,150,-155,150,80,90,92.5,92.5,170,180,-187.5,180,422.5,74,Sub-Juniors,M,Raw,SBD
11,Cornell Schoonraad,1997,South Africa,72.52,-110,110,112.5,112.5,105,115,-120,115,145,155,165,165,392.5,74,Sub-Juniors,M,Raw,SBD
12,Jerome Aymon,1997,Switzerland,73.89,100,,,100,142.5,148,150,150,100,120,140,140,390,74,Sub-Juniors,M,Raw,SBD
13,Shin Tanaka,1998,Japan,71.74,100,120,-130,120,90,-95,-95,90,140,155,-170,155,365,74,Sub-Juniors,M,Raw,SBD
1,Szymon Glowienke,1997,Poland,80.3,210,215,220,220,142.5,147.5,-150,147.5,220,230,235,235,602.5,83,Sub-Juniors,M,Raw,SBD
2,Maxim Yarusov,1997,Russia,77.81,220,230,-235,230,-120,120,132.5,132.5,220,-227.5,-227.5,220,582.5,83,Sub-Juniors,M,Raw,SBD
3,Kamil Struck,1997,Poland,82.34,215,225.5,-230.5,225.5,125,127.5,-130,127.5,210,220,225,225,578,83,Sub-Juniors,M,Raw,SBD
4,Serhii Babenko,1997,Ukraine,82.18,190,202.5,-207.5,202.5,125,130,-132.5,130,230,-242.5,-247.5,230,562.5,83,Sub-Juniors,M,Raw,SBD
5,Naoto Ito,1997,Japan,77.56,180,-200,200,200,127.5,-140,140,140,190,210,-215,210,550,83,Sub-Juniors,M,Raw,SBD
1,Jake Navarra,1998,Canada,90.52,215,222.5,230,230,137.5,145,150,150,270,290,297.5,297.5,677.5,93,Sub-Juniors,M,Raw,SBD
2,Uldis Ronalds Kiploks,1997,Latvia,92.43,230,245,-255,245,135,145,-150,145,270,-287.5,287.5,287.5,677.5,93,Sub-Juniors,M,Raw,SBD
3,Andrey Moiseev,1998,Russia,92.03,230,240,247.5,247.5,150,155,-160,155,230,-250,250,250,652.5,93,Sub-Juniors,M,Raw,SBD
4,Adam Hamdan,1997,USA,92.2,250,262.5,-280,262.5,150,155,160,160,-227.5,227.5,-250,227.5,650,93,Sub-Juniors,M,Raw,SBD
5,Kalle Närhi,1997,Finland,87.51,220,230,235,235,125,-130,130,130,235,245,250,250,615,93,Sub-Juniors,M,Raw,SBD
6,Peetu Heikkinen,1997,Finland,92.66,200,-205,-205,200,120,122.5,125,125,225,232.5,-240,232.5,557.5,93,Sub-Juniors,M,Raw,SBD
7,Farris Collins,1998,UK,88.18,160,170,180,180,110,117.5,-125,117.5,185,195,200,200,497.5,93,Sub-Juniors,M,Raw,SBD
1,Daniel Saber,1997,Sweden,99.9,240,247.5,252.5,252.5,145,152.5,157.5,157.5,280,300,-310,300,710,105,Sub-Juniors,M,Raw,SBD
2,Ty Hennen,1997,USA,100.96,230,245,-247.5,245,125,132.5,137.5,137.5,245,252.5,-262.5,252.5,635,105,Sub-Juniors,M,Raw,SBD
3,Roni Peltonen,1998,Finland,102.77,230,-235,-235,230,122.5,127.5,-130,127.5,255,260,-265,260,617.5,105,Sub-Juniors,M,Raw,SBD
DD,Andrey Zubenko,1997,Russia,103.87,230,-240,-240,230,160,-170,-170,160,250,260,270,270,,105,Sub-Juniors,M,Raw,SBD
1,Isaac Maldonado,1997,Australia,115.6,235,250,262.5,262.5,125,132.5,140,140,265,285,300,300,702.5,120,Sub-Juniors,M,Raw,SBD
2,Ryan Spiecha,1998,USA,116.24,240,260.5,263,263,150,160,-162.5,160,235,250,-265,250,673,120,Sub-Juniors,M,Raw,SBD
3,Alexandr Zagrevskiy,1998,Kazakhstan,117.76,230,-232.5,250,250,130,137.5,142.5,142.5,220,-230,230,230,622.5,120,Sub-Juniors,M,Raw,SBD
4,Maxim Tusov,1999,Russia,115.26,210,222.5,230,230,120,132.5,140,140,210,225,242.5,242.5,612.5,120,Sub-Juniors,M,Raw,SBD
5,Liam Schultz,1997,South Africa,116.65,215,-232.5,232.5,232.5,92.5,95,-97.5,95,245,255,-265,255,582.5,120,Sub-Juniors,M,Raw,SBD
6,Andrzej Woźniak,1998,Poland,109.83,210,225,-232.5,225,110,120,-122.5,120,200,217.5,-237.5,217.5,562.5,120,Sub-Juniors,M,Raw,SBD
1,Joseph Peña #1,1998,USA,145.24,307.5,327.5,-350,327.5,150,160,172.5,172.5,232.5,252.5,272.5,272.5,772.5,120+,Sub-Juniors,M,Raw,SBD
2,Alexander Dmitriev,1997,Russia,148.27,210,250,-270,250,115,130,,130,210,-250,,210,590,120+,Sub-Juniors,M,Raw,SBD
1,Dalton LaCoe,1995,USA,52.26,142.5,152.5,157.5,157.5,105,110,115,115,210,220,230,230,502.5,53,Juniors,M,Raw,SBD
2,Nicholas Viet,1995,Australia,52.44,135,-142.5,-142.5,135,82.5,90,95,95,155,167.5,172.5,172.5,402.5,53,Juniors,M,Raw,SBD
3,Yuki Tan,1993,Japan,52.5,117.5,-127.5,127.5,127.5,85,90,-95,90,160,177.5,-187.5,177.5,395,53,Juniors,M,Raw,SBD
1,Azamat Alymbek Uulu,1992,Kyrgyzstan,58.87,145,155,165,165,120,125,-127.5,125,222.5,236,240.5,240.5,530.5,59,Juniors,M,Raw,SBD
2,Marcus Yap,1994,Singapore,58.57,175,185,-187.5,185,105,110,115,115,210,223,-230,223,523,59,Juniors,M,Raw,SBD
3,Aleksandr Gusev,1992,Russia,58.53,170,177.5,180,180,122.5,127.5,-130,127.5,192.5,-205,,192.5,500,59,Juniors,M,Raw,SBD
4,Amrik Mehta,1993,UK,58.6,160,-167.5,-167.5,160,95,100,105,105,190,200,205,205,470,59,Juniors,M,Raw,SBD
5,Ilkka Ala-Luopa,1993,Finland,58.86,160,-165,165,165,100,-107.5,-107.5,100,-200,200,-202.5,200,465,59,Juniors,M,Raw,SBD
6,Jordan Lam #2,1993,UK,58.41,150,160,162.5,162.5,95,100,-102.5,100,190,200,-205,200,462.5,59,Juniors,M,Raw,SBD
7,Pavel Zayats,1995,Belarus,58.54,150,-157.5,-157.5,150,115,-120,-120,115,-170,170,180,180,445,59,Juniors,M,Raw,SBD
8,Toirzhan Marif,1996,Kazakhstan,58.49,140,-150,-150,140,110,117.5,-120,117.5,170,180,-187.5,180,437.5,59,Juniors,M,Raw,SBD
9,Kevin Rodríguez Ríos,1993,Spain,58.8,160,-170,-170,160,85,-90,90,90,-180,180,187.5,187.5,437.5,59,Juniors,M,Raw,SBD
10,Shingo Yamamoto,1994,Japan,58.44,150,-157.5,157.5,157.5,80,82.5,-85,82.5,-190,190,-197.5,190,430,59,Juniors,M,Raw,SBD
DQ,Jason Luo,1995,Canada,58.22,-190,-190,-190,,90,95,-102.5,95,185,-192.5,-202.5,185,,59,Juniors,M,Raw,SBD
1,John Paul Cauchi,1992,Australia,65.64,207.5,217.5,225.5,225.5,110,115,-117.5,115,260,275,-287.5,275,615.5,66,Juniors,M,Raw,SBD
2,Jesse Moores,1992,Canada,65.74,207.5,215,-222.5,215,137.5,142.5,-145,142.5,237.5,245,-260,245,602.5,66,Juniors,M,Raw,SBD
3,Eddie Berglund,1995,Sweden,64.48,202.5,210,215,215,175,182.5,-187.5,182.5,200,-212.5,-212.5,200,597.5,66,Juniors,M,Raw,SBD
4,Tomáš Juříček,1992,Czechia,65.83,190,-200,202.5,202.5,135,142.5,-145,142.5,215,222.5,-232.5,222.5,567.5,66,Juniors,M,Raw,SBD
5,Akseli Lintulaakso,1992,Finland,65.98,202.5,210,215,215,120,125,-130,125,212.5,-217.5,-217.5,212.5,552.5,66,Juniors,M,Raw,SBD
6,Frédéric Mannequin,1994,France,65.32,-195,195,-202.5,195,120,125,127.5,127.5,200,212.5,222.5,222.5,545,66,Juniors,M,Raw,SBD
7,Yasutaka Fuchigami,1992,Japan,64.78,192.5,205,212.5,212.5,110,115,-117.5,115,-200,200,-217.5,200,527.5,66,Juniors,M,Raw,SBD
8,Ole Martin Hofseth,1993,Norway,65.28,180,190,-192.5,190,130,137.5,-142.5,137.5,190,-200,-200,190,517.5,66,Juniors,M,Raw,SBD
9,Jack Suljevic,1996,UK,65.23,165,175,177.5,177.5,-100,100,105,105,210,220,230,230,512.5,66,Juniors,M,Raw,SBD
10,Paweł Mazij,1994,Poland,65.09,150,162.5,170,170,135,140,142.5,142.5,180,-195,197.5,197.5,510,66,Juniors,M,Raw,SBD
11,David Carleton,1995,UK,64.24,160,170,175,175,112.5,-117.5,-117.5,112.5,205,215,-222.5,215,502.5,66,Juniors,M,Raw,SBD
12,Kamil Dec,1996,Poland,65.36,165,175,-180,175,105,110,112.5,112.5,170,185,195,195,482.5,66,Juniors,M,Raw,SBD
13,Koichiro Hayashi,1994,Japan,64.66,155,162.5,-165,162.5,105,112.5,115,115,192.5,202.5,-207.5,202.5,480,66,Juniors,M,Raw,SBD
14,Brandon Choo,1992,Australia,65.6,75,,,75,112.5,117.5,-122.5,117.5,125,,,125,317.5,66,Juniors,M,Raw,SBD
DQ,Ihar Yuzapchuk,1996,Belarus,65.31,-195,-195,-195,,135,-140,142.5,142.5,,,,,,66,Juniors,M,Raw,SBD
1,Pavel Agarkov,1995,Russia,73.45,220,230,235,235,130,137.5,-140,137.5,250,-255,255,255,627.5,74,Juniors,M,Raw,SBD
2,Bastien Poyet,1995,France,72.45,200,207.5,212.5,212.5,171,172.5,175.5,175.5,225,230,235,235,623,74,Juniors,M,Raw,SBD
3,Paulius Pupinis,1994,Lithuania,72.9,195,205,-210,205,132.5,137.5,142.5,142.5,230,250,-255,250,597.5,74,Juniors,M,Raw,SBD
4,Ikki Oshima,1992,Japan,73.06,175,185,-195,185,130,140,145,145,210,230,250,250,580,74,Juniors,M,Raw,SBD
5,Arthur Bui,1992,USA,73.18,192.5,205,-212.5,205,125,132.5,-135,132.5,230,242.5,-245,242.5,580,74,Juniors,M,Raw,SBD
6,Harri Olak,1992,Estonia,73.49,200,207.5,210,210,122.5,-127.5,-127.5,122.5,245,-250,-250,245,577.5,74,Juniors,M,Raw,SBD
7,Ali Sayed,1994,Australia,72.98,175,187.5,195,195,122.5,-130,130,130,212.5,225,237.5,237.5,562.5,74,Juniors,M,Raw,SBD
8,Pedro Lins,1993,Brazil,73.71,185,195,-200,195,120,-127.5,-127.5,120,220,227.5,232.5,232.5,547.5,74,Juniors,M,Raw,SBD
9,Ladislav Přibilík,1993,Czechia,72.3,185,192.5,,192.5,117.5,-125,-125,117.5,230,-245,-245,230,540,74,Juniors,M,Raw,SBD
10,Tomoki Maegawa,1994,Japan,73.49,187.5,195,-202.5,195,100,110,117.5,117.5,200,-220,-220,200,512.5,74,Juniors,M,Raw,SBD
DQ,Teemu Hällfors,1995,Finland,73.02,-195,-195,-200,,145,155,-165,155,210,220,-232.5,220,,74,Juniors,M,Raw,SBD
DQ,Josh Hancott,1993,Canada,73.66,227.5,237.5,242.5,242.5,165,171.5,-175,171.5,-250,-250,-250,,,74,Juniors,M,Raw,SBD
1,Owen Hubbard,1992,UK,81.44,250,260,270,270,190,200,205,205,255,-270,270,270,745,83,Juniors,M,Raw,SBD
2,Jonnie Candito,1992,USA,81.77,237.5,250,260,260,142.5,155,157.5,157.5,-287.5,287.5,-306,287.5,705,83,Juniors,M,Raw,SBD
3,Joshua Tukua,1992,New Zealand,81.58,230,-240,-247.5,230,147.5,152.5,157.5,157.5,275,287.5,292.5,292.5,680,83,Juniors,M,Raw,SBD
4,Joris Quai,1992,France,81.93,237.5,245,250,250,147.5,152.5,-155,152.5,260,272.5,277.5,277.5,680,83,Juniors,M,Raw,SBD
5,Michael Previdsa,1992,Canada,82.45,230,242.5,-247.5,242.5,142.5,-150,-150,142.5,267.5,280,-290,280,665,83,Juniors,M,Raw,SBD
6,Anatoliy Zhavoronkov,1995,Kazakhstan,82.6,235,242.5,-247.5,242.5,160,165,167.5,167.5,242.5,-247.5,-247.5,242.5,652.5,83,Juniors,M,Raw,SBD
7,Ossi Sahlberg,1992,Finland,82.36,215,225,230,230,145,-150,150,150,260,270,-280,270,650,83,Juniors,M,Raw,SBD
8,Khashayar Farzam,1993,Canada,79.96,205,215,-220,215,167.5,175,-180,175,237.5,245,250,250,640,83,Juniors,M,Raw,SBD
9,Kevin Boateng,1992,Germany,82.36,205,217.5,222.5,222.5,140,145,150,150,250,265,-280,265,637.5,83,Juniors,M,Raw,SBD
10,Nicki Lentz,1992,Denmark,82.72,235,245,-250,245,142.5,150,-152.5,150,225,235,-245,235,630,83,Juniors,M,Raw,SBD
11,Alex Pinnow,1993,USA,79.13,215,-232.5,232.5,232.5,132.5,142.5,150,150,225,245,-252.5,245,627.5,83,Juniors,M,Raw,SBD
12,Jun Furukawa,1996,Japan,81.72,210,230,-240,230,105,120,-132.5,120,250,275,-280,275,625,83,Juniors,M,Raw,SBD
13,Radomil Vašík,1994,Czechia,81.69,210,220,227.5,227.5,127.5,-135,-135,127.5,265,-275,-277.5,265,620,83,Juniors,M,Raw,SBD
14,Lauri Tamminen,1992,Finland,82.32,220,-230,-230,220,150,-155,-160,150,240,-250,,240,610,83,Juniors,M,Raw,SBD
15,Byron White #1,1993,Australia,82.74,200,-210,210,210,135,140,142.5,142.5,235,-242.5,242.5,242.5,595,83,Juniors,M,Raw,SBD
16,Alexander Cochrane-Davis,1992,Australia,82.7,215,-222.5,-222.5,215,150,-157.5,-157.5,150,175,,,175,540,83,Juniors,M,Raw,SBD
1,Yerlan Smagulov,1994,Kazakhstan,92.02,275,285,290,290,167.5,177.5,185,185,270,290,310,310,785,93,Juniors,M,Raw,SBD
2,Knut Martin Haraldsen,1994,Norway,91.84,225,235,242.5,242.5,192.5,196,202.5,202.5,255,267.5,277.5,277.5,722.5,93,Juniors,M,Raw,SBD
3,Jarkko Perttula,1993,Finland,92.53,250,262.5,267.5,267.5,152.5,157.5,-162.5,157.5,255,267.5,275,275,700,93,Juniors,M,Raw,SBD
4,Devon Blackwood,1993,UK,91.8,240,250,257.5,257.5,150,157.5,162.5,162.5,250,260,-265,260,680,93,Juniors,M,Raw,SBD
5,Michael Mighton,1993,Canada,92.43,240,250,255,255,155,157.5,-162.5,157.5,240,250,260,260,672.5,93,Juniors,M,Raw,SBD
6,Riccardo Ciarrocchi,1995,Australia,92.02,252.5,260,-262.5,260,145,150,-155,150,260,-267.5,-267.5,260,670,93,Juniors,M,Raw,SBD
7,Mateusz Czechyra,1993,Poland,90.84,225,240,245,245,150,160,-162.5,160,240,260,-267.5,260,665,93,Juniors,M,Raw,SBD
8,Vito Minheere,1993,Netherlands,90.53,215,225,230,230,125,130,-135,130,275,290,-310,290,650,93,Juniors,M,Raw,SBD
9,George Seeger,1992,Australia,91.79,202.5,212.5,-215,212.5,122.5,125,-127.5,125,260,272.5,280,280,617.5,93,Juniors,M,Raw,SBD
1,Alex-Edward Raus,1992,Estonia,101.3,285,300,-310,300,180,185,190,190,275,285,290,290,780,105,Juniors,M,Raw,SBD
2,Markus Suomela,1992,Finland,104.6,230,240,252.5,252.5,165,172.5,-180,172.5,300,325,-343,325,750,105,Juniors,M,Raw,SBD
3,Łukasz Nizio,1992,Poland,104.83,255,275,-280,275,175,-180,-180,175,275,300,-312.5,300,750,105,Juniors,M,Raw,SBD
4,Sergey Cherentaev,1992,Russia,104.13,280,-290,-300,280,180,182.5,185,185,265,270,-285,270,735,105,Juniors,M,Raw,SBD
5,Thomas Brannick,1992,UK,103.5,230,240,247.5,247.5,160,170,180,180,270,280,287.5,287.5,715,105,Juniors,M,Raw,SBD
6,Takanobu Matsuzawa,1992,Japan,103.73,240,250,260,260,145,152.5,-160,152.5,280,300,-302.5,300,712.5,105,Juniors,M,Raw,SBD
7,Adam Porteš,1995,Czechia,102.86,240,255,-260,255,140,150,157.5,157.5,280,295,-302.5,295,707.5,105,Juniors,M,Raw,SBD
8,Niko Nurmi,1995,Finland,104.16,-240,-252.5,252.5,252.5,150,-160,-160,150,275,282.5,300,300,702.5,105,Juniors,M,Raw,SBD
9,Michal Marciniewski,1992,Sweden,104.36,-230,-230,230,230,155,-162.5,-162.5,155,280,290,-302.5,290,675,105,Juniors,M,Raw,SBD
10,Seiken Sano,1995,Japan,103.04,225,-235,235,235,125,132.5,137.5,137.5,265,285,-300,285,657.5,105,Juniors,M,Raw,SBD
11,Mathew Deacon-Smith,1993,UK,99.76,205,222.5,230,230,127.5,135,137.5,137.5,280,-300,-300,280,647.5,105,Juniors,M,Raw,SBD
12,William DeJong,1992,Canada,99.28,210,217.5,-222.5,217.5,130,137.5,-140,137.5,270,287.5,-302.5,287.5,642.5,105,Juniors,M,Raw,SBD
1,Tuomas Hautala,1992,Finland,119.22,270,292.5,305,305,200,207.5,212.5,212.5,340,357.5,-372,357.5,875,120,Juniors,M,Raw,SBD
2,Piotr Sadowski #1,1993,Poland,118.83,290,310.5,320,320,190,-200,200,200,280,300,307.5,307.5,827.5,120,Juniors,M,Raw,SBD
3,Mehmet Kaya,1996,Sweden,116.18,-270,270,287.5,287.5,160,172.5,175,175,280,300,305,305,767.5,120,Juniors,M,Raw,SBD
4,Vadim Tishkin,1992,Russia,119.8,265,270,-272.5,270,-187.5,195,202.5,202.5,260,272.5,-277.5,272.5,745,120,Juniors,M,Raw,SBD
5,Henrique Sinihur,1992,Brazil,119.34,270,285,-292.5,285,155,162.5,167.5,167.5,270,285,-302.5,285,737.5,120,Juniors,M,Raw,SBD
6,Jake Ripco,1993,Canada,117.84,245,260,-265,260,137.5,-150,150,150,245,255,277.5,277.5,687.5,120,Juniors,M,Raw,SBD
1,Andy Askow,1994,USA,170.93,322.5,-340.5,340.5,340.5,197.5,210,217.5,217.5,280,295,300,300,858,120+,Juniors,M,Raw,SBD
2,Luke Klein,1992,USA,160.04,295,305,315,315,192.5,-200,200,200,305,325,-343,325,840,120+,Juniors,M,Raw,SBD
3,Alexander Skripnik,1992,Russia,124.62,260,280,-295,280,170,180,190,190,260,285,300,300,770,120+,Juniors,M,Raw,SBD
4,Shaun Kelly,1993,UK,124.77,245,252.5,260,260,150,160,162.5,162.5,270,282.5,-297.5,282.5,705,120+,Juniors,M,Raw,SBD
1,Thomas Wulffeld,1969,Sweden,58.78,157.5,162.5,167.5,167.5,85,87.5,90,90,200,205,212.5,212.5,470,59,Masters 1,M,Raw,SBD
2,Kiyokazu Genda,1972,Japan,56.95,155,165,167.5,167.5,100,105,107.5,107.5,180,185,192.5,192.5,467.5,59,Masters 1,M,Raw,SBD
3,Eikichi Tomita,1971,Japan,57.09,125,-130,130,130,80,85,87.5,87.5,160,172.5,177.5,177.5,395,59,Masters 1,M,Raw,SBD
4,Nicolas Le Bellego,1975,France,58.01,117.5,125,132.5,132.5,80,85,90,90,150,160,172.5,172.5,395,59,Masters 1,M,Raw,SBD
5,Ari-Pekka Töllikkö,1970,Finland,58.08,100,110,-120,110,85,92.5,95,95,165,172.5,-177.5,172.5,377.5,59,Masters 1,M,Raw,SBD
1,Kazuya Matsunaga,1975,Japan,65.01,180,-190,190,190,115,120,122.5,122.5,220,240,-242.5,240,552.5,66,Masters 1,M,Raw,SBD
2,Timo Heiskanen,1970,Finland,65.6,175,-185,185,185,100,107.5,-112.5,107.5,250,-262.5,-262.5,250,542.5,66,Masters 1,M,Raw,SBD
3,Franck Jouveaux,1971,France,65.57,180,190,-200,190,115,120,,120,210,217.5,-225,217.5,527.5,66,Masters 1,M,Raw,SBD
4,Jacob Carrasco-Gonsales,1966,Peru,65.67,180,-190,-190,180,117.5,-120,-120,117.5,225,-230,-230,225,522.5,66,Masters 1,M,Raw,SBD
5,Aissa Abdelkader,1969,Algeria,65.91,150,175,-182.5,175,100,110,-115,110,230,-250,-252.5,230,515,66,Masters 1,M,Raw,SBD
6,Nobuyuki Ganaha,1974,Japan,65.41,160,175,-185,175,120,130,-132.5,130,180,200,-220,200,505,66,Masters 1,M,Raw,SBD
7,Peep Päll,1970,Estonia,66,162.5,170,-175,170,102.5,107.5,-110,107.5,195,205,-215,205,482.5,66,Masters 1,M,Raw,SBD
8,Pascal Poidras,1967,France,65,150,157.5,162.5,162.5,125,132.5,135,135,180,-200,-200,180,477.5,66,Masters 1,M,Raw,SBD
9,Roger Hamilton-Smith,1975,UK,64.64,140,150,155,155,105,110,-112.5,110,185,195,-200,195,460,66,Masters 1,M,Raw,SBD
10,Oleksandr Chernyshov,1966,Ukraine,65.73,70,75,80,80,132.5,142.5,-150,142.5,70,80,90,90,312.5,66,Masters 1,M,Raw,SBD
1,Tom Kean,1972,Canada,73.56,200,207.5,215,215,140,150,155,155,235,242.5,252.5,252.5,622.5,74,Masters 1,M,Raw,SBD
2,Sean Muir,1970,Australia,73.01,190,202.5,-210,202.5,125,127.5,130,130,240,250,257.5,257.5,590,74,Masters 1,M,Raw,SBD
3,Sami Siltala,1972,Finland,73.99,180,187.5,-192.5,187.5,140,-145,-145,140,242.5,-255,257.5,257.5,585,74,Masters 1,M,Raw,SBD
4,Johnny May,1968,USA,73.33,195,212.5,220,220,155,-160,-160,155,195,205,207.5,207.5,582.5,74,Masters 1,M,Raw,SBD
5,Tsutomu Imai,1970,Japan,73.04,180,200,-205,200,125,135,-140,135,200,220,225,225,560,74,Masters 1,M,Raw,SBD
6,Vincent Halbot,1969,France,73.88,175,182.5,,182.5,-147.5,147.5,152.5,152.5,180,195,-205,195,530,74,Masters 1,M,Raw,SBD
7,Dušan Švarcbach,1975,Czechia,73.98,180,190,197.5,197.5,92.5,97.5,100,100,220,-232.5,232.5,232.5,530,74,Masters 1,M,Raw,SBD
8,Christer Kedmalm,1972,Sweden,72.91,157.5,162.5,-165,162.5,132.5,140,-142.5,140,200,210,-215,210,512.5,74,Masters 1,M,Raw,SBD
9,Kevin Wooldrage,1970,UK,73.08,165,172.5,177.5,177.5,110,112.5,-115,112.5,195,200,205,205,495,74,Masters 1,M,Raw,SBD
10,Kenji Nakama,1974,Peru,71.79,145,155,-162.5,155,125,-130,-130,125,170,180,190,190,470,74,Masters 1,M,Raw,SBD
1,Jamie McDougal,1972,USA,81.58,207.5,222.5,-227.5,222.5,172.5,182.5,187.5,187.5,255,275,285,285,695,83,Masters 1,M,Raw,SBD
2,David Decouleur,1972,France,82.6,230,240,-250,240,130,137.5,-140,137.5,250,270,282.5,282.5,660,83,Masters 1,M,Raw,SBD
3,Leonid Plotnytskiy,1973,Ukraine,81.08,205,215,220,220,160,167.5,172.5,172.5,225,240,250,250,642.5,83,Masters 1,M,Raw,SBD
4,Peter Schmidt,1974,Germany,81.48,225,235,-240,235,140,147.5,152.5,152.5,225,240,-250,240,627.5,83,Masters 1,M,Raw,SBD
5,Miklós Fekete,1973,Hungary,82.09,207.5,220,225,225,147.5,152.5,155,155,235,-245,-265,235,615,83,Masters 1,M,Raw,SBD
6,Robert King,1974,Canada,82.34,192.5,205,215,215,127.5,132.5,-140,132.5,237.5,250,252.5,252.5,600,83,Masters 1,M,Raw,SBD
1,Donald Bigham,1972,USA,87.98,250,265,270,270,150,162.5,165,165,265,280,-285,280,715,93,Masters 1,M,Raw,SBD
2,Keijo Huttunen,1975,Finland,92.02,225,235,-240,235,170,-175,-175,170,260,272.5,-282.5,272.5,677.5,93,Masters 1,M,Raw,SBD
3,Sheridan Wray,1974,UK,92.28,210,217.5,220,220,170,175,177.5,177.5,250,260,265,265,662.5,93,Masters 1,M,Raw,SBD
4,Ray Owen,1970,Australia,90.93,225,232.5,-240,232.5,162.5,172.5,-180,172.5,235,255,-260,255,660,93,Masters 1,M,Raw,SBD
5,Matthew MacKay,1972,Canada,91.92,187.5,195,-200,195,132.5,137.5,140,140,245,255,-265,255,590,93,Masters 1,M,Raw,SBD
6,Roman Tůma,1971,Czechia,92.2,190,210,220,220,110,120,-122.5,120,240,250,-255,250,590,93,Masters 1,M,Raw,SBD
7,Hamid Jamal,1971,Morocco,92.49,-185,-185,185,185,150,155,157.5,157.5,240,-250,-250,240,582.5,93,Masters 1,M,Raw,SBD
8,Eiichi Meguro,1969,Japan,91.25,190,200,-210,200,145,155,-160,155,195,210,225,225,580,93,Masters 1,M,Raw,SBD
9,Tomáš Tauer,1972,Czechia,92.01,180,190,-195,190,155,165,-170,165,210,220,-230,220,575,93,Masters 1,M,Raw,SBD
10,Tim Wheeler,1974,UK,92.71,195,202.5,210,210,105,110,112.5,112.5,230,245,252.5,252.5,575,93,Masters 1,M,Raw,SBD
11,Waldemar Doktór,1973,Poland,92.3,180,-195,-195,180,115,-120,-120,115,200,-210,-210,200,495,93,Masters 1,M,Raw,SBD
1,Igor Makovetskyi,1972,Ukraine,102.67,280,300,-310,300,180,190,-197.5,190,270,282.5,290,290,780,105,Masters 1,M,Raw,SBD
2,Leon Brown,1966,Canada,99.98,250,-260,260,260,205.5,215,221.5,221.5,250,260,270,270,751.5,105,Masters 1,M,Raw,SBD
3,Kenneth Gack,1970,USA,103.89,252.5,262.5,270,270,170,182.5,-190,182.5,255,270,277.5,277.5,730,105,Masters 1,M,Raw,SBD
4,Russ Kirby,1971,UK,104.72,250,260,270,270,170,175,177.5,177.5,260,270,-285,270,717.5,105,Masters 1,M,Raw,SBD
5,Karel Rada #1,1973,Czechia,104.08,245,260,-270,260,160,-170,-170,160,250,270,-282.5,270,690,105,Masters 1,M,Raw,SBD
6,Øystein Aas,1974,Norway,102.73,210,217.5,225,225,-185,185,-192.5,185,250,260,-270,260,670,105,Masters 1,M,Raw,SBD
7,Mika Paasonen,1972,Finland,104.31,220,230,-240,230,157.5,165,-170,165,260,270,272.5,272.5,667.5,105,Masters 1,M,Raw,SBD
8,Brian George,1971,Canada,104.71,230,247.5,252.5,252.5,140,-147.5,-147.5,140,-255,260,-282.5,260,652.5,105,Masters 1,M,Raw,SBD
9,Henk de Wet,1974,South Africa,99.36,190,210,220,220,145,155,-160,155,255,-280,-280,255,630,105,Masters 1,M,Raw,SBD
10,Akihiro Takezawa,1973,Japan,101.93,195,-215,-215,195,185,195,-197.5,195,195,210,-225,210,600,105,Masters 1,M,Raw,SBD
11,Almakky Harun Yasir,1972,Singapore,102.05,200,210,-215,210,-147.5,-147.5,147.5,147.5,200,210,-220,210,567.5,105,Masters 1,M,Raw,SBD
DQ,Thomas Ziegler,1967,Germany,103.65,190,-200,202.5,202.5,-152.5,-152.5,-152.5,,225,-230,,225,,105,Masters 1,M,Raw,SBD
DQ,Jarno Ruohonen,1975,Finland,104.43,260,-267.5,-267.5,260,185,190,192.5,192.5,-270,-270,-272.5,,,105,Masters 1,M,Raw,SBD
1,Thad Benefield,1975,USA,119.41,257.5,275,-285,275,190,200,-210,200,280,297.5,307.5,307.5,782.5,120,Masters 1,M,Raw,SBD
2,Huub Hetterschijt,1973,Netherlands,114.65,250,265,272.5,272.5,192.5,-200,200,200,255,270,280,280,752.5,120,Masters 1,M,Raw,SBD
3,László Pánisz,1972,Hungary,115.63,260,275,285,285,145,-150,-150,145,290,300,305,305,735,120,Masters 1,M,Raw,SBD
4,Per Montonen,1972,Sweden,116.94,260,267.5,-270,267.5,180,187.5,-192.5,187.5,260,275,-290,275,730,120,Masters 1,M,Raw,SBD
5,Andy Hutchings,1975,UK,117.16,245,255,257.5,257.5,172.5,177.5,180,180,275,285,292.5,292.5,730,120,Masters 1,M,Raw,SBD
6,Roman Reinbold,1972,Germany,117.69,235,250,260,260,187.5,195,200,200,255,267.5,-282.5,267.5,727.5,120,Masters 1,M,Raw,SBD
7,Petr Lahoda,1970,Czechia,118.1,260,275,-285,275,185,-192.5,-192.5,185,230,250,257.5,257.5,717.5,120,Masters 1,M,Raw,SBD
8,Éric Bonin,1972,France,119.63,210,220,230,230,187.5,-195,-197.5,187.5,235,250,260,260,677.5,120,Masters 1,M,Raw,SBD
9,Jean-Derek MacNeill,1971,Canada,107.63,232.5,-240,247.5,247.5,152.5,157.5,162.5,162.5,240,250,-257.5,250,660,120,Masters 1,M,Raw,SBD
10,Madikane Faku,1975,South Africa,110.35,215,230,240,240,135,140,145,145,-270,270,-285,270,655,120,Masters 1,M,Raw,SBD
11,Pål Guddal,1971,Norway,118.91,240,-255,-255,240,187.5,-195,195,195,220,,,220,655,120,Masters 1,M,Raw,SBD
1,Ove Lehto,1972,Finland,143.36,285,-295,,285,235.5,240.5,-243,240.5,300,312.5,325,325,850.5,120+,Masters 1,M,Raw,SBD
2,Tero Seppänen,1972,Finland,131.47,275,-295,295,295,227.5,236,-241,236,290,305,317.5,317.5,848.5,120+,Masters 1,M,Raw,SBD
3,Stefan Pielorz,1974,Germany,138.88,290,300,305,305,197.5,205,-212.5,205,295,305,315,315,825,120+,Masters 1,M,Raw,SBD
4,Jaroslav Šoukal,1972,Czechia,164.5,275,295,305,305,215,-225,225,225,265,280,295,295,825,120+,Masters 1,M,Raw,SBD
5,Chris Baker #1,1974,UK,138.99,220,240,250,250,205,220,225,225,260,280,300,300,775,120+,Masters 1,M,Raw,SBD
6,Ricky Mullan,1974,UK,128.32,255,265,-272.5,265,145,150,-155,150,280,290,305,305,720,120+,Masters 1,M,Raw,SBD
7,Rick Debanks,1970,Canada,140.24,235,250,262.5,262.5,165,175,185,185,245,260,270,270,717.5,120+,Masters 1,M,Raw,SBD
8,Richard Hocquard,1968,France,127.54,245,255,-265,255,165,172.5,-175,172.5,265,275,-280,275,702.5,120+,Masters 1,M,Raw,SBD
9,Jan Filo,1971,Czechia,147.11,-272.5,-272.5,272.5,272.5,180,-187.5,-187.5,180,220,230,240,240,692.5,120+,Masters 1,M,Raw,SBD
10,Shaifulizzam Mohammad Rouse,1975,Singapore,138.15,245,255,-260,255,140,-150,-150,140,260,267.5,-272.5,267.5,662.5,120+,Masters 1,M,Raw,SBD
11,Yann Paulet,1975,France,143.75,220,230,235,235,150,157.5,162.5,162.5,250,260,-267.5,260,657.5,120+,Masters 1,M,Raw,SBD
1,Yuriy Nepovinnykh,1965,Russia,58.29,140,155,165,165,90,100,107.5,107.5,165,180,190,190,462.5,59,Masters 2,M,Raw,SBD
2,Tomoyoshi Shiiki,1964,Japan,58.58,115,125,-135,125,95,100,-107.5,100,140,-155,155,155,380,59,Masters 2,M,Raw,SBD
1,David Gray,1964,UK,65.35,175,185,192.5,192.5,127.5,132.5,135,135,225,240,-247.5,240,567.5,66,Masters 2,M,Raw,SBD
2,Jeff Phillips #1,1965,USA,63.89,165,175,182.5,182.5,107.5,112.5,117.5,117.5,207.5,220,227.5,227.5,527.5,66,Masters 2,M,Raw,SBD
3,Christian Voisin,1956,France,65.63,170,175,180,180,115,120,122.5,122.5,-205,205,-210,205,507.5,66,Masters 2,M,Raw,SBD
4,Jonas Telégin,1965,Sweden,65.83,155,165,172.5,172.5,100,105,107.5,107.5,200,207.5,212.5,212.5,492.5,66,Masters 2,M,Raw,SBD
5,Greg Simmons #2,1965,USA,65.97,162.5,172.5,-180,172.5,112.5,117.5,122.5,122.5,185,195,-200,195,490,66,Masters 2,M,Raw,SBD
6,Hironori Niwa,1961,Japan,65.62,150,160,165,165,100,105,-107.5,105,190,200,-210,200,470,66,Masters 2,M,Raw,SBD
7,Fabrice Pailler,1963,France,65.91,145,150,152.5,152.5,105,110,-112.5,110,190,195,200,200,462.5,66,Masters 2,M,Raw,SBD
8,Karsten Gelhar,1957,Germany,65.17,145,152.5,157.5,157.5,97.5,-102.5,-105,97.5,145,152.5,162.5,162.5,417.5,66,Masters 2,M,Raw,SBD
DQ,Glen Chaytor,1965,Canada,65.87,160,-170,-170,160,92.5,97.5,-100,97.5,-180,-180,-180,,,66,Masters 2,M,Raw,SBD
1,Michel Ruffault,1964,France,72.61,185,195,-200,195,92.5,-102.5,102.5,102.5,240,247.5,-256,247.5,545,74,Masters 2,M,Raw,SBD
2,Udo Bauer,1965,Germany,73.04,165,172.5,177.5,177.5,95,100,102.5,102.5,241,248.5,256,256,536,74,Masters 2,M,Raw,SBD
3,Thomas Nordqvist,1965,Sweden,73.48,182.5,190,195,195,117.5,-122.5,122.5,122.5,185,200,207.5,207.5,525,74,Masters 2,M,Raw,SBD
4,Vasilii Motovilnik,1957,Russia,73.24,165,177.5,185,185,125,132.5,140,140,177.5,190,192.5,192.5,517.5,74,Masters 2,M,Raw,SBD
5,Jukka Hakonen,1963,Finland,73.37,170,182.5,190,190,110,120,122.5,122.5,185,195,-212.5,195,507.5,74,Masters 2,M,Raw,SBD
6,Seiji Harada,1961,Japan,73.45,140,155,165,165,100,105,110,110,180,200,210,210,485,74,Masters 2,M,Raw,SBD
7,Pauli Linna,1957,Finland,73.43,120,140,150,150,95,100,-105,100,192.5,202.5,-215,202.5,452.5,74,Masters 2,M,Raw,SBD
8,Allen Ottolangui,1960,UK,73.43,160,-170,-170,160,95,102.5,-105,102.5,180,190,-195,190,452.5,74,Masters 2,M,Raw,SBD
1,Laddie Gibson,1965,USA,81.28,192.5,215,220,220,162.5,170,-175,170,227.5,245,-268,245,635,83,Masters 2,M,Raw,SBD
2,Philippe Ducamin,1959,France,82.54,210,225,230,230,135,137.5,140,140,235,245,250,250,620,83,Masters 2,M,Raw,SBD
3,Vladimir Shkirman,1964,Kazakhstan,82.19,210,220,-226,220,115,120,,120,261,267.5,-280,267.5,607.5,83,Masters 2,M,Raw,SBD
4,Makoto Yamaguchi,1963,Japan,82.54,210,-225,225,225,130,137.5,140,140,220,235,-245,235,600,83,Masters 2,M,Raw,SBD
5,Sandro D'Angelo,1964,Canada,81.69,205,215,220,220,125,-127.5,-127.5,125,237.5,250,-262.5,250,595,83,Masters 2,M,Raw,SBD
6,Yasuyuki Suzuki,1965,Japan,81.27,205,210,212.5,212.5,130,135,-137.5,135,240,-250,-255,240,587.5,83,Masters 2,M,Raw,SBD
7,Alan Joseph,1965,UK,82.58,170,180,187.5,187.5,115,120,122.5,122.5,220,240,245,245,555,83,Masters 2,M,Raw,SBD
8,Ari Oksanen,1964,Finland,80.02,175,182.5,-190,182.5,135,140,145,145,205,215,-222.5,215,542.5,83,Masters 2,M,Raw,SBD
9,Mikael Israelsson,1965,Sweden,82.42,170,-177.5,177.5,177.5,130,-137.5,-137.5,130,215,-225,-225,215,522.5,83,Masters 2,M,Raw,SBD
10,Régis Gautier,1956,France,82.12,155,-160,160,160,115,-120,-120,115,210,-225,,210,485,83,Masters 2,M,Raw,SBD
11,Nail Garipov,1960,Russia,82.66,150,157.5,-165,157.5,120,-125,-125,120,170,190,-200,190,467.5,83,Masters 2,M,Raw,SBD
12,Tomas Berg,1960,Sweden,81.61,190,-210,,190,110,117.5,-122.5,117.5,145,,,145,452.5,83,Masters 2,M,Raw,SBD
1,Troy Gibson,1965,USA,90.49,217.5,232.5,240,240,165,172.5,175,175,250,265,,265,680,93,Masters 2,M,Raw,SBD
2,Peer Hänsicke,1961,Germany,92.65,230,-237.5,237.5,237.5,170,-177.5,-177.5,170,225,240,-247.5,240,647.5,93,Masters 2,M,Raw,SBD
3,Harri Hagfors,1961,Finland,92.52,197.5,207.5,217.5,217.5,142.5,147.5,152.5,152.5,250,-265,275,275,645,93,Masters 2,M,Raw,SBD
4,Gemel Boughamdouz,1963,France,91.37,212.5,220,-225,220,160,165,167.5,167.5,240,252.5,255,255,642.5,93,Masters 2,M,Raw,SBD
5,Gennadii Smirnov,1960,Russia,91.53,230,245,252.5,252.5,145,152.5,155,155,-230,230,-240,230,637.5,93,Masters 2,M,Raw,SBD
6,Eric Dumas,1964,Australia,91.75,227.5,241,250,250,135,142.5,145,145,227.5,242.5,-255,242.5,637.5,93,Masters 2,M,Raw,SBD
7,Klaus-Dieter Jacob,1961,Germany,92.27,180,200,217.5,217.5,-152.5,157.5,162.5,162.5,220,235,-240,235,615,93,Masters 2,M,Raw,SBD
8,Michal Sekot,1961,Czechia,91.77,210,-222.5,225,225,145,-152.5,152.5,152.5,225,235,-245,235,612.5,93,Masters 2,M,Raw,SBD
9,William Jumel,1961,France,91.11,200,220,225,225,130,135,-140,135,220,230,235,235,595,93,Masters 2,M,Raw,SBD
10,Kazunori Ishikawa,1965,Japan,87.02,175,190,-200,190,120,130,132.5,132.5,175,195,200,200,522.5,93,Masters 2,M,Raw,SBD
11,Asgeir Eide-Olsen,1961,Norway,91.46,165,172.5,177.5,177.5,115,120,-125,120,185,192.5,-197.5,192.5,490,93,Masters 2,M,Raw,SBD
1,Mark Robb,1959,USA,103.47,250,265,-272.5,265,140,147.5,152.5,152.5,275,295,-300,295,712.5,105,Masters 2,M,Raw,SBD
2,Adalgiso Sicoli,1960,France,104.14,-240,240,255,255,135,145,,145,250,260,270,270,670,105,Masters 2,M,Raw,SBD
3,Henrik Winter,1962,Finland,103.4,222.5,230,237.5,237.5,155,162.5,-167.5,162.5,225,245,255,255,655,105,Masters 2,M,Raw,SBD
4,Aleksander Ilin,1964,Russia,98.79,207.5,217.5,225,225,150,157.5,-162.5,157.5,260,-270,270,270,652.5,105,Masters 2,M,Raw,SBD
5,Jarosław Dąbrowski,1965,Poland,103.24,205,215,225,225,152.5,157.5,162.5,162.5,240,250,265,265,652.5,105,Masters 2,M,Raw,SBD
6,Jari Niskanen,1963,Finland,104.84,-215,215,-220,215,-160,160,-165,160,260,-270,-282.5,260,635,105,Masters 2,M,Raw,SBD
7,Jiří Psota,1962,Czechia,103.22,200,210,220,220,150,155,157.5,157.5,222.5,235,-242.5,235,612.5,105,Masters 2,M,Raw,SBD
8,Marc Giles,1964,UK,104.44,200,210,-215,210,160,-165,-165,160,210,240,-262.5,240,610,105,Masters 2,M,Raw,SBD
1,Andrew Rodney,1965,UK,119.75,230,255,270,270,162.5,170,175,175,272.5,290,-300.5,290,735,120,Masters 2,M,Raw,SBD
2,Zoltán Kanát,1962,Czechia,114.09,-260,260,-275,260,165,-172.5,-172.5,165,260,275,-285,275,700,120,Masters 2,M,Raw,SBD
3,Tomas Andersson,1961,Sweden,117.97,265,275,280,280,115,125,130,130,275,-285,-287.5,275,685,120,Masters 2,M,Raw,SBD
4,Ron Strong,1958,Canada,118.6,225,235,-240,235,140,147.5,152.5,152.5,275,290,-300.5,290,677.5,120,Masters 2,M,Raw,SBD
5,Steve Lousich,1965,New Zealand,119.89,245,260,267.5,267.5,180,190,-192.5,190,220,-240,-240,220,677.5,120,Masters 2,M,Raw,SBD
6,Gerhardus Oosthuizen,1964,South Africa,116.17,190,-202.5,202.5,202.5,190.5,198,-200.5,198,240,252.5,-257.5,252.5,653,120,Masters 2,M,Raw,SBD
7,Tapani Laitala,1963,Finland,114.06,-240,240,,240,140,145,-150,145,230,250,-265,250,635,120,Masters 2,M,Raw,SBD
8,Bengt Eide-Olsen,1961,Norway,108.88,185,195,205,205,145,155,165,165,185,195,215,215,585,120,Masters 2,M,Raw,SBD
9,Uwe Doerfert,1959,Germany,117.98,165,182.5,192.5,192.5,132.5,142.5,-147.5,142.5,165,185,202.5,202.5,537.5,120,Masters 2,M,Raw,SBD
DQ,Vitalii Iakovlev,1961,Russia,113.06,-230,230,-245,230,-165,165,-172.5,165,-250,,,,,120,Masters 2,M,Raw,SBD
DQ,Ronny Andersen,1964,Norway,119.73,205,215,220,220,150,157.5,162.5,162.5,-230,,,,,120,Masters 2,M,Raw,SBD
1,Tom Nicholls,1963,Canada,123.92,250,265,275,275,-180,-180,180,180,270,285,290,290,745,120+,Masters 2,M,Raw,SBD
2,Sergey Nikeshin,1958,Russia,129.11,225,240,247.5,247.5,170,175,177.5,177.5,270,-282.5,-290,270,695,120+,Masters 2,M,Raw,SBD
3,Randy Cairns,1965,USA,130.07,232.5,250,260,260,137.5,142.5,147.5,147.5,247.5,265,275,275,682.5,120+,Masters 2,M,Raw,SBD
4,Kyösti Salonen,1964,Finland,136.61,225,242.5,252.5,252.5,150,-162.5,-162.5,150,260,275,-287.5,275,677.5,120+,Masters 2,M,Raw,SBD
5,Georg Haug,1965,Germany,141.28,200,215,220,220,190.5,195.5,-200,195.5,240,260,-275,260,675.5,120+,Masters 2,M,Raw,SBD
6,Bob Sadler,1962,UK,130.64,-225,225,245,245,142.5,150,-155,150,240,-260,-260,240,635,120+,Masters 2,M,Raw,SBD
7,Gustav Koltzenburg,1958,Germany,141.96,190,-192.5,202.5,202.5,150,-157.5,-157.5,150,220,235,-245,235,587.5,120+,Masters 2,M,Raw,SBD
1,Alexander Moiseev,1954,Belarus,57.52,115,120,125,125,80,85,87.5,87.5,135,-140,140,140,352.5,59,Masters 3,M,Raw,SBD
2,Elmar Põldsalu,1948,Estonia,57.7,105,112.5,120,120,55,-60,-60,55,145,155,162.5,162.5,337.5,59,Masters 3,M,Raw,SBD
3,Taiichi Horibata,1954,Japan,58.38,105,115,-120,115,82.5,87.5,-90,87.5,120,127.5,-135,127.5,330,59,Masters 3,M,Raw,SBD
4,Ari Välimaa,1955,Finland,57.51,112.5,117.5,-120,117.5,55,60,-62.5,60,125,130,-135,130,307.5,59,Masters 3,M,Raw,SBD
5,Alex Galant,1947,USA,58.32,100,110,-112.5,110,45,50,-57.5,50,125,132.5,-137.5,132.5,292.5,59,Masters 3,M,Raw,SBD
1,Martti Kilpeläinen,1955,Finland,65.52,150,160,165,165,120,126,-131,126,210,225,-236,225,516,66,Masters 3,M,Raw,SBD
2,Mitsugu Hachisu,1950,Japan,65.09,170.5,185,-190,185,115,125,-130.5,125,195,205,-212.5,205,515,66,Masters 3,M,Raw,SBD
3,Ted Byrne,1951,UK,65.07,130,140,147.5,147.5,80,85,-90,85,180,195,-212.5,195,427.5,66,Masters 3,M,Raw,SBD
4,Markku Kemppainen,1949,Finland,64.34,105,107.5,110,110,105,-107.5,110,110,145,155,157.5,157.5,377.5,66,Masters 3,M,Raw,SBD
5,Marc Henry,1951,France,65.29,95,105,-110,105,80,85,87.5,87.5,120,130,140,140,332.5,66,Masters 3,M,Raw,SBD
1,Hari Singh Cheema,1953,UK,73.71,145,-157.5,160,160,100,105,110,110,170,180,187.5,187.5,457.5,74,Masters 3,M,Raw,SBD
2,Joseph Marksteiner,1953,USA,70.11,157.5,167.5,172.5,172.5,82.5,87.5,92.5,92.5,160,170,185,185,450,74,Masters 3,M,Raw,SBD
3,Jean-Pierre Duverger,1950,France,72.52,-130,130,145,145,80,87.5,90,90,170,180,-187.5,180,415,74,Masters 3,M,Raw,SBD
4,Henri Beon,1951,France,73.66,120,-130,-130,120,87.5,92.5,-97.5,92.5,182.5,190,-195,190,402.5,74,Masters 3,M,Raw,SBD
5,Keijo Kuisma,1952,Finland,69.06,100,120,,120,87.5,-95,97.5,97.5,135,,,135,352.5,74,Masters 3,M,Raw,SBD
1,Ron Delaney,1951,Canada,82.23,165,175,180,180,115,-120,-120,115,235,245,252.5,252.5,547.5,83,Masters 3,M,Raw,SBD
2,Reima Häkkinen,1950,Finland,82.53,150,-160,160,160,140,145,148,148,190,202.5,205,205,513,83,Masters 3,M,Raw,SBD
3,Jacques Richard,1949,France,80.86,160,165,167.5,167.5,70,72.5,75,75,240,250,252.5,252.5,495,83,Masters 3,M,Raw,SBD
4,Thomas Norlander,1954,Sweden,79.96,170,175,180,180,-100,105,110,110,185,195,202.5,202.5,492.5,83,Masters 3,M,Raw,SBD
5,John LaFlamme,1950,USA,81.94,152.5,162.5,167.5,167.5,90,95,97.5,97.5,200,217.5,225,225,490,83,Masters 3,M,Raw,SBD
6,Guenter Runniger,1952,Germany,81.27,165,175,,175,110,115,-117.5,115,182.5,197.5,,197.5,487.5,83,Masters 3,M,Raw,SBD
7,Nikolay Volkov,1951,Russia,81.76,160,170,-180,170,132.5,142.5,147.5,147.5,160,170,-180,170,487.5,83,Masters 3,M,Raw,SBD
8,Bernard Forget,1949,France,74.78,155,160,165,165,70,-75,75,75,200,205,207.5,207.5,447.5,83,Masters 3,M,Raw,SBD
1,Jens Aarhus,1954,Sweden,91.25,195,210,220,220,130,140,145,145,200,220,227.5,227.5,592.5,93,Masters 3,M,Raw,SBD
2,Jorma Hietamäki,1955,Finland,91.94,200,210,-215,210,110,117.5,122.5,122.5,240,255,-262.5,255,587.5,93,Masters 3,M,Raw,SBD
3,Horst Meister,1955,Germany,90.73,180,190,-195,190,152.5,160,165,165,215,227.5,-235,227.5,582.5,93,Masters 3,M,Raw,SBD
4,Claude Welcome,1951,USA,90.17,170,182.5,190,190,142.5,147.5,150,150,190,-205,205,205,545,93,Masters 3,M,Raw,SBD
5,Ilkka Launonen,1954,Finland,90.55,150,162.5,167.5,167.5,150,157.5,-160,157.5,190,205,-210,205,530,93,Masters 3,M,Raw,SBD
6,Aleksandr Vlasov,1955,Russia,86.95,180,190,-200,190,130,140,-145,140,190,-205,,190,520,93,Masters 3,M,Raw,SBD
7,Christian Buchs,1947,France,91.9,185,-192.5,-192.5,185,95,100,105,105,215,225,230,230,520,93,Masters 3,M,Raw,SBD
8,Josef Ptáček,1953,Czechia,91.91,177.5,-182.5,182.5,182.5,135,137.5,-145,137.5,180,190,-205,190,510,93,Masters 3,M,Raw,SBD
1,Kenneth Mattsson,1954,Sweden,100.15,200,215,230,230,180,190,200,200,210,220,-227.5,220,650,105,Masters 3,M,Raw,SBD
2,Floyd Givens,1951,USA,98.17,145,185,-210,185,120,130,137.5,137.5,230,252.5,277.5,277.5,600,105,Masters 3,M,Raw,SBD
3,Leif J. Lillegård,1950,Norway,102.9,-200,200,-210,200,140,145,-147.5,145,210,225,-232.5,225,570,105,Masters 3,M,Raw,SBD
4,Leif Sydengen,1955,Norway,100.69,170,185,190,190,150.5,-155,-155,150.5,200,217.5,-230,217.5,558,105,Masters 3,M,Raw,SBD
5,Jean-Paul Belmas,1949,France,103.29,150,165,-170,165,107.5,112.5,-115,112.5,180,200,-222.5,200,477.5,105,Masters 3,M,Raw,SBD
1,Laurence Scott #1,1955,Australia,116.57,210,-217.5,-217.5,210,115,120,122.5,122.5,245,255,260,260,592.5,120,Masters 3,M,Raw,SBD
2,Rüdiger Hopp,1955,Sweden,105.42,190,200,212.5,212.5,120,127.5,132.5,132.5,210,232.5,245,245,590,120,Masters 3,M,Raw,SBD
3,Istvan Standinger,1950,Hungary,109.81,175,-190,-190,175,120,-125,-125,120,220,230,-235,230,525,120,Masters 3,M,Raw,SBD
4,François Lamoureux,1955,France,112.35,165,-175,175,175,115,-125,-125,115,220,230,235,235,525,120,Masters 3,M,Raw,SBD
5,David Wolf,1954,USA,116.58,165,175,180,180,120,130,-135,130,205,210,-220,210,520,120,Masters 3,M,Raw,SBD
6,Robert Øren,1950,Norway,108.49,150,160,170,170,130,135,137.5,137.5,190,210,-220,210,517.5,120,Masters 3,M,Raw,SBD
1,Göran Andersson,1953,Sweden,134.71,-190,190,200,200,155,165,170,170,220,230,240,240,610,120+,Masters 3,M,Raw,SBD
2,Curtis Wainwright,1954,USA,120.68,-210,210,215,215,140,145,,145,230,240,-250,240,600,120+,Masters 3,M,Raw,SBD
3,Pavel Klepáč,1955,Czechia,130.09,185,187.5,-200,187.5,127.5,132.5,,132.5,205,222.5,,222.5,542.5,120+,Masters 3,M,Raw,SBD
1,Akiyoshi Kawanaka,1942,Japan,57.75,80,90,95,95,85,87.5,-90,87.5,100,110,115,115,297.5,59,Masters 4,M,Raw,SBD
2,Seppo Helander,1939,Finland,58.43,75,-85,-85,75,62.5,67.5,70,70,130,-140,142.5,142.5,287.5,59,Masters 4,M,Raw,SBD
1,Torsten Ruotsala,1943,Finland,65.64,-130,130,140,140,65,70,-72.5,70,180,190,195,195,405,66,Masters 4,M,Raw,SBD
2,Sergey Pustovalov,1940,Russia,64.4,100,110,117.5,117.5,50,55,57.5,57.5,120,135,150,150,325,66,Masters 4,M,Raw,SBD
1,Katsuji Okiura,1945,Japan,69.66,-160,160,180,180,80,87.5,92.5,92.5,192.5,208,-220,208,480.5,74,Masters 4,M,Raw,SBD
2,Dan Oppenheim,1945,South Africa,73.03,115,127.5,132.5,132.5,90,97.5,-102.5,97.5,171,182.5,185,185,415,74,Masters 4,M,Raw,SBD
3,Guylhem Feraud,1945,France,72.74,115,122.5,-125,122.5,105,110,-115,110,160,170,175,175,407.5,74,Masters 4,M,Raw,SBD
4,Reynaldo Pascal-Casas,1944,France,73.62,-115,115,120,120,100,105,-110.5,105,150,157.5,165,165,390,74,Masters 4,M,Raw,SBD
5,Tapani Pulkkinen,1940,Finland,71.75,130,-140,140,140,70,-75,75,75,170,-190,-202.5,170,385,74,Masters 4,M,Raw,SBD
6,Frank Stamboolian Jr,1938,USA,72.23,70,85,-102.5,85,90,-97.5,-97.5,90,142.5,157.5,165,165,340,74,Masters 4,M,Raw,SBD
7,Masato Tabata,1943,Japan,68.53,75,85,-90,85,80,-87.5,87.5,87.5,95,105,110,110,282.5,74,Masters 4,M,Raw,SBD
8,Siarhei Sirotka,1935,Belarus,70.43,-95,95,100,100,25,-30,-30,25,130,140,-150,140,265,74,Masters 4,M,Raw,SBD
1,Janos Fabri,1945,Hungary,82.37,150,162.5,172.5,172.5,90,102.5,107.5,107.5,240,250,260,260,540,83,Masters 4,M,Raw,SBD
2,Ernie Parkes,1942,UK,81.9,155,165,-172.5,165,87.5,95,-97.5,95,210,225,-230,225,485,83,Masters 4,M,Raw,SBD
3,Taisto Hämäläinen,1939,Finland,81.37,-155,155,-162.5,155,-80,80,87.5,87.5,180,-185,-185,180,422.5,83,Masters 4,M,Raw,SBD
4,Raymond Fougnier,1943,USA,82.12,-115,115,125,125,80,-87.5,87.5,87.5,160,-172.5,182.5,182.5,395,83,Masters 4,M,Raw,SBD
1,Kazimierz Michael Forys,1945,Germany,90.95,170,-177.5,-177.5,170,115,120,125,125,200,210,-220,210,505,93,Masters 4,M,Raw,SBD
2,Kari Mattila,1945,Sweden,91.9,155,165,173,173,105,-110,-110,105,175,202.5,-227.5,202.5,480.5,93,Masters 4,M,Raw,SBD
3,Arnfinn Skadsem,1936,Norway,91.24,130,137.5,142.5,142.5,90,95,-100,95,147.5,155,162.5,162.5,400,93,Masters 4,M,Raw,SBD
4,Klas Helén,1942,Finland,90.42,120,130,-135,130,95,-100,100,100,145,155,-160,155,385,93,Masters 4,M,Raw,SBD
5,Gérard Tisseur,1941,France,85.46,-125,125,130,130,70,75,,75,150,160,-165,160,365,93,Masters 4,M,Raw,SBD
6,Tapani Puhakka,1944,Finland,87.92,-90,-90,90,90,90,95,-100,95,170,180,-187.5,180,365,93,Masters 4,M,Raw,SBD
1,Valeriy Bystrov,1941,Russia,98.5,175,190,-200,190,100,110,-112.5,110,200,210,215,215,515,105,Masters 4,M,Raw,SBD
2,Bill Helmich,1942,USA,104.05,120,130,140,140,105,112.5,-117.5,112.5,182.5,202.5,207.5,207.5,460,105,Masters 4,M,Raw,SBD
3,Mihkel Laurits,1944,Estonia,99.45,-150,150,160,160,102.5,-110,-110,102.5,185,195,-200,195,457.5,105,Masters 4,M,Raw,SBD
4,Peer Bjaaland,1942,Norway,93.35,110,120,125,125,117.5,123,127.5,127.5,165,175,-182.5,175,427.5,105,Masters 4,M,Raw,SBD
1,Chris Gladding,1940,UK,116.35,-140,140,150,150,117.5,125,130,130,140,150,160,160,440,120,Masters 4,M,Raw,SBD
1,Raimo Sandelin,1940,Finland,120.45,105,125,-130,125,100,112.5,-117.5,112.5,150,160,170,170,407.5,120+,Masters 4,M,Raw,SBD
2,John Huestis,1944,USA,123.48,110,115,120,120,90,97.5,100,100,140,150,-180,150,370,120+,Masters 4,M,Raw,SBD
1,Wei-Ling Chen,1982,Taiwan,46.56,140,147.5,152.5,152.5,72.5,80,-85,80,165,172.5,175,175,407.5,47,Open,F,Raw,SBD
2,Aleksandra Otchenashko,1991,Belarus,46.42,130,137.5,140,140,67.5,70,72.5,72.5,140,145,150,150,362.5,47,Open,F,Raw,SBD
3,Stef Kean,1986,Canada,46.57,122.5,130,135,135,60,-65,65,65,140,145,147.5,147.5,347.5,47,Open,F,Raw,SBD
4,Hanna Rantala,1982,Finland,46.9,100,107.5,110,110,85,90,91.5,91.5,127.5,140,-145,140,341.5,47,Open,F,Raw,SBD
5,Rie Kani,1979,Japan,46.36,102.5,107.5,110,110,70,72.5,-75,72.5,140,147.5,152.5,152.5,335,47,Open,F,Raw,SBD
6,Leslie Evangelista,1981,Philippines,46.78,102.5,107.5,110,110,57.5,60,65,65,142.5,-150,152.5,152.5,327.5,47,Open,F,Raw,SBD
7,Bénédicte LePanse,1978,France,46.75,110,-115,-115,110,65,70,-72.5,70,125,132.5,-137.5,132.5,312.5,47,Open,F,Raw,SBD
8,Rebecca Heath #1,,UK,45.55,87.5,92.5,97.5,97.5,55,57.5,60,60,107.5,115,122.5,122.5,280,47,Open,F,Raw,SBD
9,Mariska Casey,1978,South Africa,45.68,80,87.5,92.5,92.5,45,47.5,50,50,90,110,120,120,262.5,47,Open,F,Raw,SBD
1,Sofia Loft,1990,Sweden,51.14,135,145,147.5,147.5,85,90,92.5,92.5,160,170,172.5,172.5,412.5,52,Open,F,Raw,SBD
2,Olga Golubeva,1970,Russia,51.48,125,130,135,135,92.5,97.5,-100,97.5,160,170,-180.5,170,402.5,52,Open,F,Raw,SBD
3,Magdolna Petróczki,1968,Hungary,51.59,130,135,140,140,80,-85,-85,80,155,162.5,165,165,385,52,Open,F,Raw,SBD
4,Suzanne Hartwig-Gary,1968,USA,51.09,135,145,-151,145,67.5,72.5,75,75,135,145,-150,145,365,52,Open,F,Raw,SBD
5,Miia Grändås Liimatainen,1986,Sweden,50.13,125,-132.5,-132.5,125,65,70,-75,70,150,160,-170,160,355,52,Open,F,Raw,SBD
6,Joanna Rieber,1976,Canada,50.92,112.5,120,-125,120,80,85,-87.5,85,137.5,145,-147.5,145,350,52,Open,F,Raw,SBD
7,Robyn Ripley,1986,Canada,52,120,125,127.5,127.5,72.5,75,-77.5,75,135,-145,-145,135,337.5,52,Open,F,Raw,SBD
8,Jasmin Higgs,1980,Australia,51.7,102.5,-105,-105,102.5,70,75,-80,75,130,135,-140,135,312.5,52,Open,F,Raw,SBD
9,Megan Hinchley,1981,Australia,51.21,110,115,-117.5,115,57.5,62.5,-65,62.5,122.5,130,132.5,132.5,310,52,Open,F,Raw,SBD
10,Giulia Muto,1987,South Africa,51.35,95,105,112.5,112.5,50,55,-57.5,55,110,120,-127.5,120,287.5,52,Open,F,Raw,SBD
1,Inna Filimonova #1,1976,Russia,56.54,160,168,172.5,172.5,75,80,85,85,175,182.5,190,190,447.5,57,Open,F,Raw,SBD
2,Hui-Chun Wu,1986,Taiwan,56.63,-130,130,137.5,137.5,90,97.5,100,100,170,-177.5,-177.5,170,407.5,57,Open,F,Raw,SBD
3,Maria Htee,1988,Canada,56.21,155,160,162.5,162.5,82.5,85,87.5,87.5,150,155,-157.5,155,405,57,Open,F,Raw,SBD
4,Yuliya Vavilova,1979,Russia,56.99,137.5,145,-150,145,75,80,85,85,145,155,162.5,162.5,392.5,57,Open,F,Raw,SBD
5,Louise Murray,1988,UK,56.84,130,137.5,-142.5,137.5,80,85,-87.5,85,142.5,147.5,-152.5,147.5,370,57,Open,F,Raw,SBD
6,Antoinette Kriel,1971,South Africa,54.72,117.5,125,-130,125,85,90,-92.5,90,145,-152.5,,145,360,57,Open,F,Raw,SBD
7,Lodrina Cherne,1982,USA,56,117.5,-125,125,125,-67.5,67.5,-72.5,67.5,145,157.5,165,165,357.5,57,Open,F,Raw,SBD
8,Alyssa Haveson,1988,USA,56.48,115,122.5,-127.5,122.5,67.5,72.5,-77.5,72.5,142.5,160,-162.5,160,355,57,Open,F,Raw,SBD
9,Fanny Brimboeuf,1986,France,54.98,117.5,125,-130,125,80,85,87.5,87.5,140,-147.5,-147.5,140,352.5,57,Open,F,Raw,SBD
10,Lauren Guignon,1986,Australia,56.41,112.5,120,-125,120,-60,60,65,65,160,-170,,160,345,57,Open,F,Raw,SBD
11,Marjaana Vähäsantanen,1976,Finland,56.76,115,120,125,125,65,67.5,70,70,130,135,140,140,335,57,Open,F,Raw,SBD
12,Amanda Brown,1978,Australia,56.35,-110,110,-115,110,60,65,-70,65,147.5,-152.5,152.5,152.5,327.5,57,Open,F,Raw,SBD
13,Marianna Bogdanova,1983,Estonia,56.59,110,115,,115,60,62.5,,62.5,140,145,,145,322.5,57,Open,F,Raw,SBD
14,Suzan Premji,1984,New Zealand,53.74,-85,85,95,95,50,55,60,60,115,125,132.5,132.5,287.5,57,Open,F,Raw,SBD
15,Zane Krumina,1990,Latvia,56.84,90,97.5,100,100,50,55,-57.5,55,105,-110,110,110,265,57,Open,F,Raw,SBD
16,Milla Ylinen,1976,Finland,56.75,100,110,,110,60,-67.5,-67.5,60,45,57.5,90,90,260,57,Open,F,Raw,SBD
1,Jennifer Thompson #1,1973,USA,61.4,130,140,142.5,142.5,125,137.5,140.5,140.5,160,190,197.5,197.5,480.5,63,Open,F,Raw,SBD
2,Jenny Adolfsson,1982,Sweden,62.54,142.5,150,152.5,152.5,105,110,-112.5,110,160,172.5,177.5,177.5,440,63,Open,F,Raw,SBD
3,Cícera Tavares,1976,Brazil,62.77,157.5,165,167.5,167.5,80,-85,85,85,180,-185,-185,180,432.5,63,Open,F,Raw,SBD
4,Kelli Fagan,1980,Australia,61.98,147.5,160,-167.5,160,70,75,-77.5,75,170,180,187.5,187.5,422.5,63,Open,F,Raw,SBD
5,Anni Vuohijoki,1988,Finland,62.48,-157.5,157.5,162.5,162.5,80,-82.5,-82.5,80,180,-192.5,-192.5,180,422.5,63,Open,F,Raw,SBD
6,Ivana Horná,1990,Slovakia,62.49,147.5,152.5,157.5,157.5,77.5,-82.5,-82.5,77.5,185,-190,-190,185,420,63,Open,F,Raw,SBD
7,Olga Vorotnikova,1975,Russia,61.99,137.5,-142.5,142.5,142.5,90,95,-97.5,95,167.5,180,-185,180,417.5,63,Open,F,Raw,SBD
8,Kacey Baines,1980,Canada,61.42,125,130,-135,130,65,67.5,70,70,165,175,180,180,380,63,Open,F,Raw,SBD
9,Abi Graham,1978,UK,62.12,110,120,125,125,72.5,77.5,-80,77.5,160,170,175,175,377.5,63,Open,F,Raw,SBD
10,Silvia Stütz,1978,Germany,62.59,-105,-110,110,110,80,82.5,-85,82.5,155,162.5,170,170,362.5,63,Open,F,Raw,SBD
11,Tanja Stenholdt Olsen,1990,Denmark,62.04,115,122.5,127.5,127.5,62.5,67.5,70,70,147.5,160,-167.5,160,357.5,63,Open,F,Raw,SBD
12,Danel van Jaarsveld,1977,South Africa,61.93,127.5,,,127.5,75,80,-85,80,145,,,145,352.5,63,Open,F,Raw,SBD
13,Carolina Dillen,1983,New Zealand,62.84,115,122.5,125,125,67.5,-72.5,72.5,72.5,140,150,152.5,152.5,350,63,Open,F,Raw,SBD
14,Ewelina Sobiech,1989,Poland,62.44,115,120,-125,120,62.5,67.5,-70,67.5,140,150,-152.5,150,337.5,63,Open,F,Raw,SBD
15,Hisako Hayashi,1951,Japan,61.69,110,120,-130,120,60,67.5,70,70,125,135,-137.5,135,325,63,Open,F,Raw,SBD
1,Kimberly Walford,1978,USA,69.02,-175,175,-187.5,175,105,110,112.5,112.5,222.5,235,240.5,240.5,528,72,Open,F,Raw,SBD
2,Linda Pulsan,1971,Papua New Guinea,70.69,177.5,182.5,-185,182.5,87.5,92.5,97.5,97.5,187.5,-195,-195,187.5,467.5,72,Open,F,Raw,SBD
3,Isabella von Weissenberg,1989,Sweden,71.3,170,177.5,180,180,82.5,90,92.5,92.5,175,190,192.5,192.5,465,72,Open,F,Raw,SBD
4,Rhaea Stinn,1988,Canada,71.69,-170,170,-177.5,170,107.5,115,-117.5,115,172.5,180,-185,180,465,72,Open,F,Raw,SBD
5,Maria Volkova,1972,Russia,70.71,155,-160,160,160,105,107.5,-112.5,107.5,145,152.5,-160,152.5,420,72,Open,F,Raw,SBD
6,Tanya Bull,1983,UK,69.85,127.5,137.5,-142.5,137.5,65,70,72.5,72.5,160,175,185,185,395,72,Open,F,Raw,SBD
7,Anna-Kaisa Kostiainen,1991,Finland,71.48,-140,140,,140,70,75,-80,75,170,177.5,-182.5,177.5,392.5,72,Open,F,Raw,SBD
8,Louise Richardson,1977,UK,68.44,140,147.5,152.5,152.5,65,70,-72.5,70,150,160,-165,160,382.5,72,Open,F,Raw,SBD
9,Thais Menegucci,1980,Brazil,70.17,135,142.5,-147.5,142.5,70,75,-80,75,150,-160,-160,150,367.5,72,Open,F,Raw,SBD
10,Mutsumi Kaneko,1986,Japan,67.5,110,120,-127.5,120,60,65,67.5,67.5,110,120,-127.5,120,307.5,72,Open,F,Raw,SBD
1,Ielja Strik,1973,Netherlands,83.71,185,197.5,-207,197.5,127.5,132.5,136,136,180,190,-200,190,523.5,84,Open,F,Raw,SBD
2,Sniazhana Zubko,1991,Belarus,79.28,177.5,185,192.5,192.5,85,90,92.5,92.5,190,200,207.5,207.5,492.5,84,Open,F,Raw,SBD
3,Sebrina Davis,1970,USA,81.08,165,-182.5,-182.5,165,95,100,-107.5,100,205,217.5,-228,217.5,482.5,84,Open,F,Raw,SBD
4,Tasha Williams,1973,New Zealand,81.51,165,-172.5,-172.5,165,95,97.5,100,100,185,197.5,-202.5,197.5,462.5,84,Open,F,Raw,SBD
5,Eileen DuPlooy,1983,Canada,75.41,155,165,170,170,87.5,92.5,-95,92.5,175,185,192.5,192.5,455,84,Open,F,Raw,SBD
6,Ellinor Svensson,1986,Sweden,82.56,160,172.5,177.5,177.5,77.5,85,-90,85,175,185,190,190,452.5,84,Open,F,Raw,SBD
7,Johanna Kankus,1984,Finland,76.03,167.5,175,-177.5,175,100,105,-107.5,105,160,170,-175,170,450,84,Open,F,Raw,SBD
8,Rachel Atemie,1991,UK,80.8,120,130,135,135,67.5,75,-80,75,165,175,182.5,182.5,392.5,84,Open,F,Raw,SBD
9,Thayse Baij,1987,Brazil,79.27,-145,145,-157.5,145,60,67.5,-75,67.5,175,-177.5,-177.5,175,387.5,84,Open,F,Raw,SBD
1,Bonica Brown,1988,USA,130.29,247.5,-260,-260,247.5,132.5,142.5,145.5,145.5,207.5,222.5,-236.5,222.5,615.5,84+,Open,F,Raw,SBD
2,Emelie Pettersson,1980,Sweden,110.32,200,210,215,215,120,125,127.5,127.5,205,-210,-210,205,547.5,84+,Open,F,Raw,SBD
3,Fang-Yun Su,1992,Taiwan,113.68,220,227.5,232.5,232.5,107.5,110,112.5,112.5,180,187.5,195,195,540,84+,Open,F,Raw,SBD
4,Tatyana Meshcheryakova,1974,Russia,95.7,185,195,-200,195,120,125,-127.5,125,185,197.5,-202.5,197.5,517.5,84+,Open,F,Raw,SBD
5,Ya-Wen Chang,1984,Taiwan,91.59,200,210,215,215,102.5,110,-115,110,170,190,-205,190,515,84+,Open,F,Raw,SBD
6,Najat Khoury,1982,Australia,123.56,195,205,212.5,212.5,77.5,82.5,87.5,87.5,190,-200,205,205,505,84+,Open,F,Raw,SBD
7,Eytyxia Ananiadou,1987,Greece,90.3,185,-192.5,195,195,85,95,-102.5,95,190,200,207.5,207.5,497.5,84+,Open,F,Raw,SBD
8,Judith Reitmann,1967,Uruguay,93.43,180,190,200,200,95,102.5,-107.5,102.5,175,-182.5,-182.5,175,477.5,84+,Open,F,Raw,SBD
9,Katariina Nokua,1973,Finland,101.74,185,-207.5,-207.5,185,97.5,-100,,97.5,180,-192.5,-202.5,180,462.5,84+,Open,F,Raw,SBD
10,Anna Macnab,1984,UK,105.92,177.5,187.5,192.5,192.5,65,70,75,75,175,187.5,192.5,192.5,460,84+,Open,F,Raw,SBD
11,Ana de Joux,1979,New Zealand,101.84,165,-175,-180,165,77.5,-82.5,82.5,82.5,-175,175,-190,175,422.5,84+,Open,F,Raw,SBD
12,Zuzana Bitterová,1984,Czechia,103.29,100,-120,127.5,127.5,-60,67.5,72.5,72.5,110,125,135,135,335,84+,Open,F,Raw,SBD
1,Olga Volynskaya,1999,Russia,42.23,65,70,72.5,72.5,45,47.5,50,50,85,92.5,97.5,97.5,220,43,Sub-Juniors,F,Raw,SBD
2,Mariya Bovkun,2001,Kazakhstan,42.38,-60,65,-72.5,65,37.5,42.5,-45,42.5,70,-80,80,80,187.5,43,Sub-Juniors,F,Raw,SBD
1,Mia Engrenius,1997,Sweden,46.68,90,95,97.5,97.5,65,68,-70,68,120,132.5,135.5,135.5,301,47,Sub-Juniors,F,Raw,SBD
2,Sofya Sobolevskaya,1998,Russia,46.47,90,95,100,100,-47.5,47.5,50,50,120,127.5,135,135,285,47,Sub-Juniors,F,Raw,SBD
3,Tatsiana Damashyna,1998,Belarus,46.66,87.5,92.5,-95,92.5,45,47.5,50,50,100,107.5,115,115,257.5,47,Sub-Juniors,F,Raw,SBD
4,Vlada Stazayeva,1998,Kazakhstan,46.72,70,80,87.5,87.5,47.5,-52.5,-52.5,47.5,80,90,95,95,230,47,Sub-Juniors,F,Raw,SBD
1,Tatiana Nabatchikova,1999,Russia,51.3,90,97.5,-100,97.5,55,60,-62.5,60,122.5,127.5,132.5,132.5,290,52,Sub-Juniors,F,Raw,SBD
2,Krystsina Shlykovich,1998,Belarus,51.54,105,-110,-110,105,52.5,55,-57.5,55,117.5,122.5,-130,122.5,282.5,52,Sub-Juniors,F,Raw,SBD
3,Anette Kirkanen,2000,Finland,51.87,102.5,107.5,-112.5,107.5,62.5,-65,65,65,102.5,-107.5,-115,102.5,275,52,Sub-Juniors,F,Raw,SBD
1,Valeriya Vlasova,1997,Russia,55.96,110,117.5,122.5,122.5,80,85,88,88,127.5,137.5,150,150,360.5,57,Sub-Juniors,F,Raw,SBD
2,Lena Sjøl,1997,Norway,56.35,110,120,125,125,75.5,80.5,82.5,82.5,135,143.5,153,153,360.5,57,Sub-Juniors,F,Raw,SBD
3,Aliaksandra Burykina,1999,Belarus,56.48,122.5,-130,-130,122.5,70,75,77.5,77.5,135,-144,-144,135,335,57,Sub-Juniors,F,Raw,SBD
4,Emily Gardner #1,2000,USA,55.79,115,122.5,127.5,127.5,65,70,72.5,72.5,115,122.5,-127.5,122.5,322.5,57,Sub-Juniors,F,Raw,SBD
5,Anabelle Owen,1999,Australia,56.75,85,95,-105,95,45,50,-55,50,100,110,117.5,117.5,262.5,57,Sub-Juniors,F,Raw,SBD
6,Celine Hein,2000,Germany,55.09,70,77.5,-80,77.5,40,45,-47.5,45,100,110,-115,110,232.5,57,Sub-Juniors,F,Raw,SBD
1,Sonja Stefanie Krüger,1999,Germany,62.44,117.5,-122.5,122.5,122.5,70,75,-80,75,-135,-135,135,135,332.5,63,Sub-Juniors,F,Raw,SBD
2,Tuulia Lohivuo,1997,Finland,62.58,107.5,112.5,115,115,67.5,70,72.5,72.5,137.5,142.5,-147.5,142.5,330,63,Sub-Juniors,F,Raw,SBD
3,Anna Mikryukova,1999,Russia,60.59,-115,-115,115,115,75,80,82.5,82.5,117.5,122.5,125,125,322.5,63,Sub-Juniors,F,Raw,SBD
4,Anastasiya Derevyanko #2,1998,Russia,58.57,100,105,107.5,107.5,62.5,65,67.5,67.5,125,130,137.5,137.5,312.5,63,Sub-Juniors,F,Raw,SBD
5,Samantha Thomasson,1998,Australia,61.5,112.5,117.5,-122.5,117.5,62.5,65,-67.5,65,125,-130,130,130,312.5,63,Sub-Juniors,F,Raw,SBD
6,Wioletta Sobczak,1997,Poland,62.65,-110,110,-112.5,110,52.5,-57.5,-57.5,52.5,120,130,132.5,132.5,295,63,Sub-Juniors,F,Raw,SBD
7,Nana Mäkynen,1999,Finland,62.88,87.5,92.5,95,95,47.5,50,-52.5,50,110,115,120,120,265,63,Sub-Juniors,F,Raw,SBD
1,Robin Johnson,1998,USA,70.14,140,147.5,155,155,75,-80,80,80,147.5,157.5,-165,157.5,392.5,72,Sub-Juniors,F,Raw,SBD
2,Aleksandra Borisova,1997,Russia,70.04,115,120,122.5,122.5,85,-92.5,-92.5,85,155,162.5,167.5,167.5,375,72,Sub-Juniors,F,Raw,SBD
3,Lydia Mele,1998,USA,71.27,-127.5,-127.5,127.5,127.5,72.5,77.5,-80,77.5,132.5,145,152.5,152.5,357.5,72,Sub-Juniors,F,Raw,SBD
4,Magdalena Czerw,1997,Poland,71.86,110,117.5,122.5,122.5,65,72.5,-75,72.5,125,135,152.5,152.5,347.5,72,Sub-Juniors,F,Raw,SBD
5,Henna Kaasalainen,1999,Finland,70.81,122.5,-127.5,-127.5,122.5,60,-62.5,-62.5,60,155,162.5,-167.5,162.5,345,72,Sub-Juniors,F,Raw,SBD
6,Mirka Valo,1997,Finland,71.12,90,100,105,105,55,60,-62.5,60,145,-152.5,152.5,152.5,317.5,72,Sub-Juniors,F,Raw,SBD
7,Matthildur Óskarsdóttir,1999,Iceland,64.8,112.5,117.5,120,120,65,67.5,-70,67.5,115,120,125,125,312.5,72,Sub-Juniors,F,Raw,SBD
8,Bronwyn Marshall,1998,South Africa,68.82,85,92.5,100,100,40,45,-47.5,45,107.5,-115,115,115,260,72,Sub-Juniors,F,Raw,SBD
1,Cipriana Castellano,1997,USA,72.57,145,-152.5,152.5,152.5,75,80,82.5,82.5,162.5,172.5,-180.5,172.5,407.5,84,Sub-Juniors,F,Raw,SBD
2,Susanna Törrönen,1998,Finland,78.38,115,120,125,125,106,-108.5,-108.5,106,150,160,165,165,396,84,Sub-Juniors,F,Raw,SBD
3,Aino Autio,1997,Finland,83.33,125,132.5,137.5,137.5,75,80,-85,80,152.5,160,162.5,162.5,380,84,Sub-Juniors,F,Raw,SBD
4,Abigail McLean,1998,UK,78.83,117.5,125,127.5,127.5,60,65,70,70,162.5,172.5,-182.5,172.5,370,84,Sub-Juniors,F,Raw,SBD
5,McKenzie Strait,1997,Canada,80.98,100,110,115,115,42.5,47.5,50,50,102.5,120,130,130,295,84,Sub-Juniors,F,Raw,SBD
1,Emma Pettersson,1998,Sweden,85.4,125,135,142.5,142.5,67.5,72.5,75,75,150,162.5,-167.5,162.5,380,84+,Sub-Juniors,F,Raw,SBD
2,Anastasiia Minaeva,1998,Russia,86.23,120,130,-137.5,130,60,65,70,70,125,130,135,135,335,84+,Sub-Juniors,F,Raw,SBD
3,Regina Meier,1999,Kazakhstan,88.62,120,132.5,140,140,55,-62.5,-62.5,55,105,120,-132.5,120,315,84+,Sub-Juniors,F,Raw,SBD
1,Svetlana Korolyova,1993,Russia,42.68,95,100,-105,100,52.5,57.5,62.5,62.5,107.5,112.5,117.5,117.5,280,43,Juniors,F,Raw,SBD
2,Kozue Nemoto,1992,Japan,42.83,70,77.5,82.5,82.5,45,50,52.5,52.5,125,135,-140.5,135,270,43,Juniors,F,Raw,SBD
3,Vialeta Kudrevich,1995,Belarus,42.67,80,87.5,-92.5,87.5,52.5,57.5,-62.5,57.5,95,-102.5,-102.5,95,240,43,Juniors,F,Raw,SBD
1,Violeta Chebotar,1994,Ukraine,44.94,105,115,-120,115,70,75,-77.5,75,110,117.5,122.5,122.5,312.5,47,Juniors,F,Raw,SBD
2,Andréa Zicaro,1994,France,46.68,105,110,-112.5,110,-65,-65,65,65,112.5,120,-127.5,120,295,47,Juniors,F,Raw,SBD
3,Alexandra Churkina,1992,Russia,46.97,97.5,102.5,-105,102.5,57.5,62.5,-65,62.5,110,117.5,125,125,290,47,Juniors,F,Raw,SBD
4,Georgia Emmett,1994,Australia,45.8,72.5,77.5,-80,77.5,40,42.5,-45,42.5,100,107.5,-110,107.5,227.5,47,Juniors,F,Raw,SBD
1,Inna Filimonova #2,1994,Russia,51.67,120,130,137.5,137.5,90,-100,100,100,120,130,135,135,372.5,52,Juniors,F,Raw,SBD
2,Daria Kuzmina,1992,Ukraine,51.3,92.5,100,107.5,107.5,62.5,67.5,72.5,72.5,130,142.5,-160.5,142.5,322.5,52,Juniors,F,Raw,SBD
3,Krista Määttä,1995,Finland,51.87,100,105,107.5,107.5,60,62.5,65,65,120,140,-152.5,140,312.5,52,Juniors,F,Raw,SBD
4,Ashley Will,1994,USA,51.07,102.5,-110,110,110,42.5,47.5,50,50,107.5,112.5,-117.5,112.5,272.5,52,Juniors,F,Raw,SBD
5,Jenna Välimäki,1996,Finland,51.96,90,95,97.5,97.5,47.5,50,-52.5,50,102.5,105,-110,105,252.5,52,Juniors,F,Raw,SBD
6,Ayasa Minami,1993,Japan,50.9,85,-92.5,-92.5,85,60,65,70,70,-90,90,,90,245,52,Juniors,F,Raw,SBD
1,Satu Sakko,1994,Finland,55.31,112.5,-115,-115,112.5,67.5,70,72.5,72.5,145,155,165,165,350,57,Juniors,F,Raw,SBD
2,Amandine Grondin,1992,France,56.17,110,115,120,120,80,-85,85,85,135,140,145,145,350,57,Juniors,F,Raw,SBD
3,Katinka van Baalen,1996,Netherlands,56.93,100,107.5,-110,107.5,67.5,72.5,-75,72.5,125,137.5,145,145,325,57,Juniors,F,Raw,SBD
4,Darian Lendermon,1994,USA,56.06,-117.5,117.5,-120,117.5,67.5,70,72.5,72.5,127.5,132.5,-140,132.5,322.5,57,Juniors,F,Raw,SBD
5,Ayaka Tsutsumi,1995,Japan,56.58,100,115,-122.5,115,50,-55,-55,50,135,142.5,150,150,315,57,Juniors,F,Raw,SBD
6,Araceli Reyes Ramirez,1996,Peru,56.44,105,112.5,-115,112.5,42.5,45,-47.5,45,150,-160,-160,150,307.5,57,Juniors,F,Raw,SBD
7,Chihiro Teraishi,1993,Japan,55.72,80,90,95,95,65,67.5,-72.5,67.5,115,125,132.5,132.5,295,57,Juniors,F,Raw,SBD
8,Susie Butler,1994,UK,56.2,95,100,102.5,102.5,55,60,62.5,62.5,117.5,125,-135,125,290,57,Juniors,F,Raw,SBD
9,Megan Leighton,1996,South Africa,55.97,90,97.5,-105,97.5,55,-60,-60,55,90,105,-115,105,257.5,57,Juniors,F,Raw,SBD
1,Alice Zheng,1992,USA,61.76,130,137.5,142.5,142.5,62.5,70,72.5,72.5,155,165,170,170,385,63,Juniors,F,Raw,SBD
2,Maruru Terahara,1993,Japan,62.16,140,150,-160,150,67.5,70,72.5,72.5,150,162.5,-167.5,162.5,385,63,Juniors,F,Raw,SBD
3,Viktoriya Makarevich,1995,Belarus,62.45,122.5,130,135,135,75,80,82.5,82.5,160,167.5,-172.5,167.5,385,63,Juniors,F,Raw,SBD
4,Mariia Erohina,1995,Russia,62.55,125,132.5,-135,132.5,77.5,82.5,85,85,140,147.5,-152.5,147.5,365,63,Juniors,F,Raw,SBD
5,Anastasiya Potrashkova,1996,Russia,62.01,122.5,127.5,-132.5,127.5,77.5,82.5,-85,82.5,132.5,140,150,150,360,63,Juniors,F,Raw,SBD
6,Elín Melgar Aðalheiðardóttir,1992,Iceland,61.78,125,-130,130,130,77.5,80,82.5,82.5,130,137.5,145,145,357.5,63,Juniors,F,Raw,SBD
7,Petra Olsson,1994,Sweden,61.39,125,-130,130,130,70,75,-77.5,75,135,150,-162.5,150,355,63,Juniors,F,Raw,SBD
8,Heli Jokela,1994,Finland,62.34,115,120,122.5,122.5,77.5,80,-82.5,80,130,142.5,-150,142.5,345,63,Juniors,F,Raw,SBD
9,Teighan McIntyre,1992,Canada,61.52,112.5,120,-125,120,-62.5,62.5,67.5,67.5,137.5,145,147.5,147.5,335,63,Juniors,F,Raw,SBD
10,Mengting Wu,1994,Singapore,63,-100,105,110,110,52.5,57.5,-60,57.5,120,130,135,135,302.5,63,Juniors,F,Raw,SBD
11,Elisa Ahonen,1994,Finland,62.47,95,100,-105,100,-55,55,-60,55,125,135,142.5,142.5,297.5,63,Juniors,F,Raw,SBD
1,Marie Tunroth,1992,Sweden,70.5,152.5,162.5,167.5,167.5,95,100,102.5,102.5,185,196,201.5,201.5,471.5,72,Juniors,F,Raw,SBD
2,Inger-Lene Sunnarvik,1992,Norway,71.84,132.5,142.5,147.5,147.5,92.5,100,102.5,102.5,150,160,-167.5,160,410,72,Juniors,F,Raw,SBD
3,Carolyne Savage,1992,Canada,69.64,125,132.5,137.5,137.5,70,75,77.5,77.5,160,170,172.5,172.5,387.5,72,Juniors,F,Raw,SBD
4,Hannah Ghindea,1992,USA,69.13,120,130,135,135,60,65,-70,65,155,162.5,170,170,370,72,Juniors,F,Raw,SBD
5,Charlene Lee,1992,Australia,71.1,-140,145,-150,145,60,-65,65,65,132.5,137.5,142.5,142.5,352.5,72,Juniors,F,Raw,SBD
6,Amy Spencer,1993,UK,70.85,115,122.5,127.5,127.5,67.5,-72.5,72.5,72.5,135,145,-152.5,145,345,72,Juniors,F,Raw,SBD
7,Anni Leppänen,1995,Finland,66.74,120,127.5,-132.5,127.5,60,-65,-65,60,145,155,-162.5,155,342.5,72,Juniors,F,Raw,SBD
8,Alexandra Kousathana,1994,Canada,72,115,120,-125,120,65,70,-75,70,120,130,137.5,137.5,327.5,72,Juniors,F,Raw,SBD
9,Rhiannon Edwards,1992,UK,70,107.5,115,-120,115,57.5,62.5,65,65,125,130,132.5,132.5,312.5,72,Juniors,F,Raw,SBD
10,Esteri Hakamäki,1996,Finland,71.86,95,-100,100,100,67.5,70,-72.5,70,130,137.5,-145,137.5,307.5,72,Juniors,F,Raw,SBD
11,Kazusa Madoba,1996,Japan,69.37,25,70,,70,75,80,-82.5,80,70,,,70,220,72,Juniors,F,Raw,SBD
1,Yan-Fei Zhao,1995,Australia,83.7,175,185,-193,185,82.5,87.5,-90,87.5,160,-170,182.5,182.5,455,84,Juniors,F,Raw,SBD
2,Elena Ivanova,1992,Russia,83.59,155,165,170,170,97.5,105,112.5,112.5,155,165,-170,165,447.5,84,Juniors,F,Raw,SBD
3,Clara Fridén,1992,Sweden,80.71,137.5,150,-152.5,150,97.5,102.5,105,105,167.5,190,-195,190,445,84,Juniors,F,Raw,SBD
4,Kamila Kasperska,1992,Poland,80.73,172.5,-182.5,-182.5,172.5,77.5,82.5,85,85,180,185,-197.5,185,442.5,84,Juniors,F,Raw,SBD
5,Emma Andersson,1994,Sweden,82.49,140,-147.5,-147.5,140,87.5,90,-92.5,90,185,195,-217.5,195,425,84,Juniors,F,Raw,SBD
6,Stephanie Mahan,1992,USA,82.59,132.5,140,147.5,147.5,70,75,80,80,140,152.5,157.5,157.5,385,84,Juniors,F,Raw,SBD
7,Eveliina Hytönen,1992,Finland,83.08,145,-150,-150,145,70,-72.5,72.5,72.5,147.5,150,155,155,372.5,84,Juniors,F,Raw,SBD
1,Maria Koteles,1992,Hungary,144.01,170,182.5,190,190,125,132.5,-137.5,132.5,170,190,200,200,522.5,84+,Juniors,F,Raw,SBD
2,Tiarne Augustine,1994,Australia,125.56,155,162.5,170,170,92.5,100,105,105,125,132.5,137.5,137.5,412.5,84+,Juniors,F,Raw,SBD
3,Charlie Chester,1996,UK,87.07,150,160,-165,160,60,65,70,70,160,167.5,170,170,400,84+,Juniors,F,Raw,SBD
4,Jenessa Ward,1996,Canada,151.87,145,150,-155,150,55,62.5,-70,62.5,150,160,-170,160,372.5,84+,Juniors,F,Raw,SBD
5,Karolina Ruta,1992,Poland,84.6,120,130,140,140,70,-72.5,-72.5,70,125,135,140,140,350,84+,Juniors,F,Raw,SBD
1,Nathalie Feraud,1967,France,46.91,90,-95,-95,90,70,-72.5,-72.5,70,120,125,-130,125,285,47,Masters 1,F,Raw,SBD
2,Joanna Welsh,1972,USA,45.35,90,95,-97.5,95,52.5,-55,55,55,125,130,-135,130,280,47,Masters 1,F,Raw,SBD
3,Ana Geitner,1967,Germany,41.8,85,90,95,95,37.5,42.5,-45,42.5,130,137.5,-140,137.5,275,47,Masters 1,F,Raw,SBD
4,Yoshimi Nakada,1971,Japan,46.67,72.5,-77.5,-77.5,72.5,62.5,65,-67.5,65,105,110,-112.5,110,247.5,47,Masters 1,F,Raw,SBD
1,Noriko Furuya,1971,Japan,51.42,115,120,122.5,122.5,92.5,97.5,100,100,135,140,-142.5,140,362.5,52,Masters 1,F,Raw,SBD
2,Marcela Sandvik,1974,Finland,51.02,95,100,102.5,102.5,75,77.5,80,80,125,130,132.5,132.5,315,52,Masters 1,F,Raw,SBD
3,Mervi Sirkiä,1972,Finland,51.62,92.5,97.5,-100,97.5,67.5,72.5,-75,72.5,127.5,137.5,-147.5,137.5,307.5,52,Masters 1,F,Raw,SBD
4,Véronique Gaillard,1966,France,50.96,92.5,97.5,-100,97.5,45,47.5,50,50,90,95,100,100,247.5,52,Masters 1,F,Raw,SBD
5,Anita Kidgell,1968,UK,49.53,70,75,-80,75,50,52.5,-55,52.5,105,110,-112.5,110,237.5,52,Masters 1,F,Raw,SBD
1,Monica S. Rasmussen,1972,Norway,56.07,117.5,125,130,130,57.5,60,-65,60,135,142.5,-145,142.5,332.5,57,Masters 1,F,Raw,SBD
2,Pelin Baykal,1973,UK,56.86,97.5,105,110,110,57.5,60,62.5,62.5,135,145,150,150,322.5,57,Masters 1,F,Raw,SBD
3,Nina Le Blevenec,1972,France,56.6,105,112.5,-117.5,112.5,50,52.5,-55,52.5,137.5,142.5,147.5,147.5,312.5,57,Masters 1,F,Raw,SBD
4,Danna Snow,1969,USA,55.84,85,97.5,-102.5,97.5,70,72.5,-75,72.5,122.5,130,137.5,137.5,307.5,57,Masters 1,F,Raw,SBD
5,Mariko Tanaka,1974,Japan,54.82,100,105,-115,105,60,62.5,65,65,125,130,-137.5,130,300,57,Masters 1,F,Raw,SBD
6,Rikki Flanders,1970,Australia,56.95,95,102.5,-110,102.5,52.5,57.5,60,60,125,-130,-130,125,287.5,57,Masters 1,F,Raw,SBD
7,Lin Donevska,1969,Australia,56.25,-80,80,-85,80,62.5,65,-67.5,65,102.5,107.5,-110,107.5,252.5,57,Masters 1,F,Raw,SBD
1,Mary Giffin,1972,Australia,61.87,142.5,148,150,150,77.5,82.5,-85,82.5,150,157.5,160,160,392.5,63,Masters 1,F,Raw,SBD
2,Isabelle Iliev,1967,France,61.81,115,125,132.5,132.5,80,85,-87.5,85,135,142.5,-150,142.5,360,63,Masters 1,F,Raw,SBD
3,Khrys Kyriacou,1967,UK,61.49,120,127.5,132.5,132.5,72.5,77.5,-82.5,77.5,130,142.5,-152.5,142.5,352.5,63,Masters 1,F,Raw,SBD
4,Satu Luoto,1969,Finland,62.09,127.5,132.5,-135,132.5,85,87.5,90,90,130,-135,-135,130,352.5,63,Masters 1,F,Raw,SBD
5,Frances Manias,1973,Canada,61.31,125,-130,-130,125,70,75,-77.5,75,145,150,-160,150,350,63,Masters 1,F,Raw,SBD
6,Bronwyn Stevens,1970,New Zealand,61.39,-135,-135,135,135,-70,70,-72.5,70,145,-150,-152.5,145,350,63,Masters 1,F,Raw,SBD
7,Daniela Falck,1975,Germany,62.44,102.5,110,115,115,65,70,-72.5,70,140,150,155,155,340,63,Masters 1,F,Raw,SBD
8,Helene Johage,1967,Sweden,62.23,100,107.5,-115,107.5,60,65,67.5,67.5,130,140,-152.5,140,315,63,Masters 1,F,Raw,SBD
9,Virginie Pujol,1974,France,60.2,110,115,120,120,60,65,67.5,67.5,115,120,-130,120,307.5,63,Masters 1,F,Raw,SBD
10,Siret Sügis,1972,Estonia,62.36,92.5,97.5,-102.5,97.5,52.5,57.5,-60,57.5,130,140,-145,140,295,63,Masters 1,F,Raw,SBD
11,Tamar Beridze,1975,Georgia,61.59,-90,90,97.5,97.5,50,55,-60,55,130,-145,-145,130,282.5,63,Masters 1,F,Raw,SBD
12,Ronel Reyneke,1969,South Africa,61.93,85,95,100,100,50,55,57.5,57.5,100,-115,-122.5,100,257.5,63,Masters 1,F,Raw,SBD
DQ,Dana Mills,1972,Canada,60.86,-125,-125,-125,,60,62.5,65,65,115,120,127.5,127.5,,63,Masters 1,F,Raw,SBD
1,Priscilla Ribic,1972,USA,71.45,142.5,152.5,160,160,102.5,112.5,115.5,115.5,-182.5,182.5,202.5,202.5,478,72,Masters 1,F,Raw,SBD
2,Susanna Virkkunen,1973,Finland,69.77,120,,,120,110,115,-118,115,170,180,185,185,420,72,Masters 1,F,Raw,SBD
3,Laura de Wet,1974,South Africa,70.55,140,147.5,-152.5,147.5,65,70,72.5,72.5,160,172.5,-187.5,172.5,392.5,72,Masters 1,F,Raw,SBD
4,Sheryl Condon,1972,USA,70.02,127.5,135,137.5,137.5,70,75,-77.5,75,157.5,167.5,-170,167.5,380,72,Masters 1,F,Raw,SBD
5,Vicky Taylor-Hood,1975,Canada,70.83,127.5,-132.5,132.5,132.5,70,72.5,75,75,155,-162.5,-162.5,155,362.5,72,Masters 1,F,Raw,SBD
6,Pirjo Palosaari,1970,Finland,69.8,-120,120,127.5,127.5,62.5,65,67.5,67.5,125,132.5,-140,132.5,327.5,72,Masters 1,F,Raw,SBD
7,Jeni Aulman,1972,UK,69.15,100,107.5,-112.5,107.5,67.5,70,-72.5,70,147.5,-155,-155,147.5,325,72,Masters 1,F,Raw,SBD
8,Farhana Booley,1973,South Africa,68.99,105,112.5,117.5,117.5,57.5,62.5,-65,62.5,125,132.5,137.5,137.5,317.5,72,Masters 1,F,Raw,SBD
9,Karin Caesar,1968,Sweden,71.01,-75,80,87.5,87.5,42.5,-47.5,-47.5,42.5,97.5,-107.5,-107.5,97.5,227.5,72,Masters 1,F,Raw,SBD
1,Alicia Webb,1971,USA,83.12,177.5,185,187.5,187.5,102.5,-110,110,110,182.5,192.5,200,200,497.5,84,Masters 1,F,Raw,SBD
2,Teija Hakala,1975,Finland,83.22,-120,120,132.5,132.5,75,77.5,82.5,82.5,145,155,160,160,375,84,Masters 1,F,Raw,SBD
3,Laufey Agnarsdóttir,1973,Iceland,82.44,115,120,125,125,75,77.5,80,80,130,137.5,145,145,350,84,Masters 1,F,Raw,SBD
4,Wanda Lewis,1968,Canada,81.05,110,117.5,122.5,122.5,52.5,57.5,-60,57.5,142.5,150,-157.5,150,330,84,Masters 1,F,Raw,SBD
5,Karen Towersey,1966,UK,83.45,-95,95,105,105,57.5,62.5,65,65,135,145,-157.5,145,315,84,Masters 1,F,Raw,SBD
6,Jaqueline Pope,1972,UK,82.36,-100,-100,100,100,57.5,62.5,67.5,67.5,130,142.5,-155,142.5,310,84,Masters 1,F,Raw,SBD
1,Tina Robinson,1967,USA,85.74,125,135,140,140,95,102.5,107.5,107.5,147.5,157.5,167.5,167.5,415,84+,Masters 1,F,Raw,SBD
2,Joanna Linna,1974,Finland,85.8,122.5,127.5,132.5,132.5,87.5,90,-95,90,135,145,155,155,377.5,84+,Masters 1,F,Raw,SBD
3,Jerriann Doll,1968,USA,100.29,-100,100,112.5,112.5,87.5,95,100,100,147.5,-165,165,165,377.5,84+,Masters 1,F,Raw,SBD
4,Katrina Evans,1973,Australia,105.26,-145,-145,145,145,82.5,85,87.5,87.5,145,-150,-150,145,377.5,84+,Masters 1,F,Raw,SBD
5,Jo Whiteley,1970,UK,110.58,112.5,120,125,125,67.5,72.5,75,75,150,160,-170,160,360,84+,Masters 1,F,Raw,SBD
1,Noriko Tsuji,1964,Japan,45.9,90,95,-100,95,60,62.5,-65,62.5,115,120,125,125,282.5,47,Masters 2,F,Raw,SBD
2,Mary Macken,1961,Australia,46.58,95,102.5,-107.5,102.5,47.5,50,-52.5,50,110,117.5,-127.5,117.5,270,47,Masters 2,F,Raw,SBD
3,Imelda Flanagan,1961,UK,42.15,67.5,70,72.5,72.5,37.5,40,-42.5,40,105,110,-115,110,222.5,47,Masters 2,F,Raw,SBD
1,Leena Jokitalo,1961,Finland,51.79,90,100,-110,100,55,60,-62.5,60,127.5,137.5,-148,137.5,297.5,52,Masters 2,F,Raw,SBD
2,Jenny Hunter,1958,UK,51.72,50,52.5,62.5,62.5,60,65,-67.5,65,100,110,115,115,242.5,52,Masters 2,F,Raw,SBD
1,Daiva Žarovienė,1965,Lithuania,56.07,95,102.5,111,111,95,102.5,-105,102.5,135,145,151.5,151.5,365,57,Masters 2,F,Raw,SBD
2,Lynne Homan,1962,USA,56.39,92.5,100,105,105,72.5,77.5,-80,77.5,140,150,151,151,333.5,57,Masters 2,F,Raw,SBD
3,Edith Guennec,1956,France,55.72,105,110,-112.5,110,52.5,55,-57.5,55,140,-150.5,-150.5,140,305,57,Masters 2,F,Raw,SBD
4,Helen Allen,1961,Australia,56.37,82.5,-92.5,92.5,92.5,55,60,-62.5,60,130,140,-145,140,292.5,57,Masters 2,F,Raw,SBD
1,Joanne Craig,1961,USA,62.53,115,125,-127.5,125,57.5,60,-62.5,60,110,120,132.5,132.5,317.5,63,Masters 2,F,Raw,SBD
2,Cathleen Marksteiner,1958,USA,62.34,100,105,107.5,107.5,67.5,72.5,75,75,117.5,125,132.5,132.5,315,63,Masters 2,F,Raw,SBD
3,Daisy Blondan,1959,France,62.47,95,-100,-100,95,65,70,-72.5,70,125,130,-135,130,295,63,Masters 2,F,Raw,SBD
4,Margetta Salminen,1961,Finland,62.35,85,92.5,95,95,62.5,67.5,-70,67.5,112.5,120,125,125,287.5,63,Masters 2,F,Raw,SBD
5,Lynda Banks,1965,UK,62.59,90,95,-100,95,50,-55,55,55,127.5,130,137.5,137.5,287.5,63,Masters 2,F,Raw,SBD
6,Françoise Calves,1956,France,59.76,95,100,-105,100,50,52.5,-55,52.5,110,115,-120,115,267.5,63,Masters 2,F,Raw,SBD
1,Elisabeth Wahlander,1960,Sweden,70.05,130,140,147.5,147.5,65,-72.5,-72.5,65,160,170,-180,170,382.5,72,Masters 2,F,Raw,SBD
2,Donna Marts,1960,USA,68.38,100,105,110,110,75,80,-82.5,80,130,140,152.5,152.5,342.5,72,Masters 2,F,Raw,SBD
3,Gro-Berit Staveim,1964,Norway,71.5,107.5,115,-120,115,62.5,67.5,-70,67.5,140,-150,-150,140,322.5,72,Masters 2,F,Raw,SBD
4,Susan Maguire,1962,Australia,70.96,-105,105,107.5,107.5,57.5,62.5,-65,62.5,117.5,122.5,-125,122.5,292.5,72,Masters 2,F,Raw,SBD
5,Sue Giles,1960,UK,71.07,82.5,90,92.5,92.5,52.5,57.5,-60,57.5,115,127.5,130,130,280,72,Masters 2,F,Raw,SBD
6,Heli Valtonen,1961,Finland,70.7,70,80,85,85,62.5,67.5,70,70,115,122.5,-127.5,122.5,277.5,72,Masters 2,F,Raw,SBD
7,Delwyn Evans,1964,New Zealand,70.5,70,80,-87.5,80,62.5,67.5,70,70,100,112.5,122.5,122.5,272.5,72,Masters 2,F,Raw,SBD
8,Jannica Cassegard,1962,Sweden,68.83,70,77.5,85,85,65,70,-72.5,70,90,100,105,105,260,72,Masters 2,F,Raw,SBD
9,Masako Ando,1960,Japan,64.45,-70,-70,70,70,55,60,-62.5,60,80,90,100,100,230,72,Masters 2,F,Raw,SBD
1,Jackie Blasbery,1963,UK,83.82,115,125,132.5,132.5,75,85,90.5,90.5,152.5,162.5,170.5,170.5,393.5,84,Masters 2,F,Raw,SBD
2,Laurie MacDonald,1962,USA,78.93,117.5,127.5,135.5,135.5,72.5,77.5,-80,77.5,132.5,145,152.5,152.5,365.5,84,Masters 2,F,Raw,SBD
3,Janet Martin #2,1959,Canada,82.02,105,110,115,115,45,47.5,-50,47.5,135,142.5,-147.5,142.5,305,84,Masters 2,F,Raw,SBD
4,Åsa Bartholdsson,1963,Sweden,82.26,102.5,110,-115,110,55,57.5,60,60,112.5,120,-137.5,120,290,84,Masters 2,F,Raw,SBD
DQ,Heather Hope,1964,Australia,82.49,70,-75,75,75,35,37.5,-40,37.5,-120,-120,-120,,,84,Masters 2,F,Raw,SBD
1,Michelle Fayant,1964,USA,101.89,152.5,167.5,175,175,95,102.5,105,105,175,190,200,200,480,84+,Masters 2,F,Raw,SBD
2,Helen Toms,1964,UK,89.98,105,115,125,125,55,60,-65,60,130,142.5,150,150,335,84+,Masters 2,F,Raw,SBD
1,Marina Cornwall,1954,UK,44.95,70,75,-80,75,45,47.5,50,50,107.5,115,-123,115,240,47,Masters 3,F,Raw,SBD
2,Pirjo Kemppainen,1951,Finland,46.33,35,40,-42.5,40,25,-27.5,27.5,27.5,65,70,75,75,142.5,47,Masters 3,F,Raw,SBD
1,Vuokko Viitasaari,1954,Finland,51.03,90,100,107.5,107.5,50,52.5,55,55,120,130,140,140,302.5,52,Masters 3,F,Raw,SBD
1,Marie-France Baron,1951,France,55.41,75,80,85,85,50,52.5,-55,52.5,122.5,130,135,135,272.5,57,Masters 3,F,Raw,SBD
2,Irmeli Vaulakorpi,1954,Finland,56.56,70,77.5,-85,77.5,52.5,55,57.5,57.5,100,105,112.5,112.5,247.5,57,Masters 3,F,Raw,SBD
3,Cherry Wilson,1950,New Zealand,56.54,70,75,-77.5,75,37.5,40,-42.5,40,102.5,107.5,-112.5,107.5,222.5,57,Masters 3,F,Raw,SBD
4,Carol Dorsey,1947,USA,55.95,55,60,70,70,37.5,-40,40,40,87.5,95,-102.5,95,205,57,Masters 3,F,Raw,SBD
1,Tatyana Fomina,1946,Russia,61.89,85,90,95,95,42.5,45,47.5,47.5,110,120,130,130,272.5,63,Masters 3,F,Raw,SBD
2,Sirkka-Liisa Hohenthal,1948,Finland,60.91,65,75,80,80,30,35,40,40,80,90,100,100,220,63,Masters 3,F,Raw,SBD
3,Leslie Macko,1949,USA,61.23,57.5,-62.5,62.5,62.5,35,37.5,-40,37.5,77.5,85,90,90,190,63,Masters 3,F,Raw,SBD
1,Gail Moore,1947,USA,70.86,90,100,-110,100,60,67.5,-70,67.5,110,125,-140,125,292.5,72,Masters 3,F,Raw,SBD
2,Marie-Christine Liege,1955,France,69.09,82.5,90,95,95,65,70,-73,70,110,120,-127.5,120,285,72,Masters 3,F,Raw,SBD
3,Maritta Jaurola,1950,Finland,68.03,80,85,87.5,87.5,55,-60,-60,55,115,120,125,125,267.5,72,Masters 3,F,Raw,SBD
1,Linda Rousseau,1953,Canada,78.28,105,-112.5,-120.5,105,60,-65,-65,60,110,115,120,120,285,84,Masters 3,F,Raw,SBD
2,Patricia Kroken,1947,USA,82.89,77.5,-80,80,80,27.5,,,27.5,97.5,102.5,-105,102.5,210,84,Masters 3,F,Raw,SBD
1,Marit Pettersen,1954,Norway,91.22,85,95,100,100,50,57.5,-60,57.5,125,132.5,137.5,137.5,295,84+,Masters 3,F,Raw,SBD
1,Eila Kumpuniemi,1942,Finland,46.42,57.5,62.5,67.5,67.5,40,45,-47.5,45,95,105,110,110,222.5,47,Masters 4,F,Raw,SBD
1,Bebe Burns,1942,USA,50.81,45,50,-60,50,35,37.5,-40,37.5,65,70,75.5,75.5,163,52,Masters 4,F,Raw,SBD
